<?xml version="1.0" encoding="UTF-8" standalone="no"?>
<!-- Created with Inkscape (http://www.inkscape.org/) -->

<svg
   xmlns:dc="http://purl.org/dc/elements/1.1/"
   xmlns:cc="http://creativecommons.org/ns#"
   xmlns:rdf="http://www.w3.org/1999/02/22-rdf-syntax-ns#"
   xmlns:svg="http://www.w3.org/2000/svg"
   xmlns="http://www.w3.org/2000/svg"
   xmlns:sodipodi="http://sodipodi.sourceforge.net/DTD/sodipodi-0.dtd"
   xmlns:inkscape="http://www.inkscape.org/namespaces/inkscape"
   width="229.03241mm"
   height="89.447113mm"
   viewBox="0 0 229.03241 89.447113"
   version="1.1"
   id="svg8"
   inkscape:version="0.92.1 r15371"
   sodipodi:docname="sed_vs_awk.svg"
   inkscape:export-filename="/home/david/Proyectos/Presentaciones_CursoProgramacionOOCC/13_awk_scan_text_01/img/sed_vs_awk.png"
   inkscape:export-xdpi="96"
   inkscape:export-ydpi="96">
  <defs
     id="defs2" />
  <sodipodi:namedview
     id="base"
     pagecolor="#ffffff"
     bordercolor="#666666"
     borderopacity="1.0"
     inkscape:pageopacity="0.0"
     inkscape:pageshadow="2"
     inkscape:zoom="0.66950758"
     inkscape:cx="500.12469"
     inkscape:cy="131.83448"
     inkscape:document-units="mm"
     inkscape:current-layer="layer1"
     showgrid="false"
     fit-margin-top="0"
     fit-margin-left="0"
     fit-margin-right="0"
     fit-margin-bottom="0"
     inkscape:window-width="1366"
     inkscape:window-height="709"
     inkscape:window-x="0"
     inkscape:window-y="0"
     inkscape:window-maximized="1" />
  <metadata
     id="metadata5">
    <rdf:RDF>
      <cc:Work
         rdf:about="">
        <dc:format>image/svg+xml</dc:format>
        <dc:type
           rdf:resource="http://purl.org/dc/dcmitype/StillImage" />
        <dc:title></dc:title>
      </cc:Work>
    </rdf:RDF>
  </metadata>
  <g
     inkscape:label="Capa 1"
     inkscape:groupmode="layer"
     id="layer1"
     transform="translate(-28.453749,-122.3256)">
    <circle
       r="20.94512"
       cy="143.79988"
       cx="49.928036"
       id="circle854"
       style="opacity:0.76499999;fill:#000000;fill-opacity:1;stroke:none;stroke-width:0.26499999;stroke-miterlimit:4;stroke-dasharray:none;stroke-dashoffset:0;stroke-opacity:1" />
    <circle
       style="opacity:0.76499999;fill:#000000;fill-opacity:1;stroke:none;stroke-width:0.26499999;stroke-miterlimit:4;stroke-dasharray:none;stroke-dashoffset:0;stroke-opacity:1"
       id="circle856"
       cx="49.928036"
       cy="190.82759"
       r="20.94512" />
    <path
       inkscape:connector-curvature="0"
       id="path45"
       d="m 124.55829,186.6958 v 2.13476 H 76.537446 v 6.14743 h 48.020844 v 2.13527 l 4.51084,-2.6045 4.51083,-2.60449 -4.51083,-2.60449 z"
       style="opacity:0.76499999;fill:#000000;fill-opacity:1;stroke:none;stroke-width:0.26499999;stroke-miterlimit:4;stroke-dasharray:none;stroke-dashoffset:0;stroke-opacity:1" />
    <path
       style="opacity:0.76499999;fill:#000000;fill-opacity:1;stroke:none;stroke-width:0.26499999;stroke-miterlimit:4;stroke-dasharray:none;stroke-dashoffset:0;stroke-opacity:1"
       d="m 124.55829,139.66809 v 2.13476 H 76.537446 v 6.14743 h 48.020844 v 2.13527 l 4.51084,-2.6045 4.51083,-2.60449 -4.51083,-2.60449 z"
       id="path47"
       inkscape:connector-curvature="0" />
    <circle
       style="opacity:1;fill:#00a1ff;fill-opacity:1;stroke:none;stroke-width:0.26499999;stroke-miterlimit:4;stroke-dasharray:none;stroke-dashoffset:0;stroke-opacity:1"
       id="path10"
       cx="49.398869"
       cy="143.27072"
       r="20.94512" />
    <circle
       r="20.94512"
       cy="190.29843"
       cx="49.398869"
       id="circle12"
       style="opacity:1;fill:#ff5555;fill-opacity:1;stroke:none;stroke-width:0.26499999;stroke-miterlimit:4;stroke-dasharray:none;stroke-dashoffset:0;stroke-opacity:1" />
    <path
       style="opacity:0.89899998;fill:#00ff00;fill-opacity:1;stroke:none;stroke-width:0.26499999;stroke-miterlimit:4;stroke-dasharray:none;stroke-dashoffset:0;stroke-opacity:1"
       d="m 124.02912,185.0897 v 2.13476 H 76.008279 v 6.14743 h 48.020841 v 2.13527 l 4.51084,-2.6045 4.51083,-2.60449 -4.51083,-2.60449 z"
       id="rect14"
       inkscape:connector-curvature="0" />
    <path
       inkscape:connector-curvature="0"
       id="path19"
       d="m 124.02912,138.06199 v 2.13476 H 76.008279 v 6.14743 h 48.020841 v 2.13527 l 4.51084,-2.6045 4.51083,-2.60449 -4.51083,-2.60449 z"
       style="opacity:0.89899998;fill:#00ff00;fill-opacity:1;stroke:none;stroke-width:0.26499999;stroke-miterlimit:4;stroke-dasharray:none;stroke-dashoffset:0;stroke-opacity:1" />
    <text
       xml:space="preserve"
       style="font-style:normal;font-weight:normal;font-size:24.61639214px;line-height:1.25;font-family:sans-serif;letter-spacing:0px;word-spacing:0px;fill:#000000;fill-opacity:1;stroke:none;stroke-width:0.61540979"
       x="144.2243"
       y="148.92929"
       id="text27"><tspan
         sodipodi:role="line"
         id="tspan25"
         x="144.2243"
         y="148.92929"
         style="stroke-width:0.61540979">[líneas]</tspan></text>
    <text
       id="text31"
       y="197.93297"
       x="144.2243"
       style="font-style:normal;font-weight:normal;font-size:24.61639214px;line-height:1.25;font-family:sans-serif;letter-spacing:0px;word-spacing:0px;fill:#000000;fill-opacity:1;stroke:none;stroke-width:0.61540979"
       xml:space="preserve"><tspan
         style="stroke-width:0.61540979"
         y="197.93297"
         x="144.2243"
         id="tspan29"
         sodipodi:role="line">[campos]</tspan></text>
    <text
       xml:space="preserve"
       style="font-style:normal;font-variant:normal;font-weight:normal;font-stretch:normal;font-size:17.57478714px;line-height:1.25;font-family:'Accanthis ADF Std';-inkscape-font-specification:'Accanthis ADF Std, Normal';font-variant-ligatures:normal;font-variant-caps:normal;font-variant-numeric:normal;font-feature-settings:normal;text-align:start;letter-spacing:0px;word-spacing:0px;writing-mode:lr-tb;text-anchor:start;fill:#000000;fill-opacity:1;stroke:none;stroke-width:0.43936965"
       x="33.610806"
       y="196.8011"
       id="text39"><tspan
         sodipodi:role="line"
         id="tspan37"
         x="33.610806"
         y="196.8011"
         style="font-style:normal;font-variant:normal;font-weight:normal;font-stretch:normal;font-size:17.57478714px;font-family:'Accanthis ADF Std';-inkscape-font-specification:'Accanthis ADF Std, Normal';font-variant-ligatures:normal;font-variant-caps:normal;font-variant-numeric:normal;font-feature-settings:normal;text-align:start;writing-mode:lr-tb;text-anchor:start;stroke-width:0.43936965">awk</tspan></text>
    <text
       id="text43"
       y="149.77339"
       x="36.747494"
       style="font-style:normal;font-variant:normal;font-weight:normal;font-stretch:normal;font-size:17.57478714px;line-height:1.25;font-family:'Accanthis ADF Std';-inkscape-font-specification:'Accanthis ADF Std, Normal';font-variant-ligatures:normal;font-variant-caps:normal;font-variant-numeric:normal;font-feature-settings:normal;text-align:start;letter-spacing:0px;word-spacing:0px;writing-mode:lr-tb;text-anchor:start;fill:#000000;fill-opacity:1;stroke:none;stroke-width:0.43936965"
       xml:space="preserve"><tspan
         style="font-style:normal;font-variant:normal;font-weight:normal;font-stretch:normal;font-size:17.57478714px;font-family:'Accanthis ADF Std';-inkscape-font-specification:'Accanthis ADF Std, Normal';font-variant-ligatures:normal;font-variant-caps:normal;font-variant-numeric:normal;font-feature-settings:normal;text-align:start;writing-mode:lr-tb;text-anchor:start;stroke-width:0.43936965"
         y="149.77339"
         x="36.747494"
         id="tspan41"
         sodipodi:role="line">sed</tspan></text>
  </g>
</svg>
