ID Continent,Continent,ID Country,Country,ID Year,Year,ID HS0,HS0,ID HS2,HS2,FOB US
2,África,101,Senegal,2011,2011,04,Foodstuffs,042204,Wine,24000.0
2,África,101,Senegal,2013,2013,04,Foodstuffs,042204,Wine,46080.0
2,África,105,Sierra Leona,2011,2011,04,Foodstuffs,042204,Wine,34268.0
2,África,105,Sierra Leona,2012,2012,04,Foodstuffs,042204,Wine,32340.25
2,África,105,Sierra Leona,2013,2013,04,Foodstuffs,042204,Wine,24597.0
2,África,105,Sierra Leona,2014,2014,04,Foodstuffs,042204,Wine,35588.5
2,África,105,Sierra Leona,2015,2015,04,Foodstuffs,042204,Wine,26649.0
2,África,105,Sierra Leona,2016,2016,04,Foodstuffs,042204,Wine,78287.0
2,África,106,Liberia,2011,2011,04,Foodstuffs,042204,Wine,159770.5
2,África,106,Liberia,2012,2012,04,Foodstuffs,042204,Wine,155491.25
2,África,106,Liberia,2013,2013,04,Foodstuffs,042204,Wine,296690.25
2,África,106,Liberia,2014,2014,04,Foodstuffs,042204,Wine,446509.9375
2,África,106,Liberia,2015,2015,04,Foodstuffs,042204,Wine,600248.125
2,África,106,Liberia,2016,2016,04,Foodstuffs,042204,Wine,660367.3125
2,África,107,Costa de Marfil,2011,2011,04,Foodstuffs,042204,Wine,105335.890625
2,África,107,Costa de Marfil,2012,2012,04,Foodstuffs,042204,Wine,176811.03125
2,África,107,Costa de Marfil,2013,2013,04,Foodstuffs,042204,Wine,74873.796875
2,África,107,Costa de Marfil,2014,2014,04,Foodstuffs,042204,Wine,152838.09375
2,África,107,Costa de Marfil,2015,2015,04,Foodstuffs,042204,Wine,128341.8203125
2,África,107,Costa de Marfil,2016,2016,04,Foodstuffs,042204,Wine,167725.65625
2,África,108,Ghana,2011,2011,04,Foodstuffs,042204,Wine,257388.1875
2,África,108,Ghana,2012,2012,04,Foodstuffs,042204,Wine,284095.34375
2,África,108,Ghana,2013,2013,04,Foodstuffs,042204,Wine,447620.84375
2,África,108,Ghana,2014,2014,04,Foodstuffs,042204,Wine,249887.5
2,África,108,Ghana,2015,2015,04,Foodstuffs,042204,Wine,210793.1875
2,África,108,Ghana,2016,2016,04,Foodstuffs,042204,Wine,158571.3125
2,África,109,Togo,2011,2011,04,Foodstuffs,042204,Wine,77257.0
2,África,109,Togo,2012,2012,04,Foodstuffs,042204,Wine,107102.6015625
2,África,109,Togo,2013,2013,04,Foodstuffs,042204,Wine,56103.6015625
2,África,109,Togo,2014,2014,04,Foodstuffs,042204,Wine,40425.0
2,África,109,Togo,2015,2015,04,Foodstuffs,042204,Wine,25528.91015625
2,África,109,Togo,2016,2016,04,Foodstuffs,042204,Wine,52164.0
2,África,111,Nigeria,2011,2011,04,Foodstuffs,042204,Wine,1414861.5
2,África,111,Nigeria,2012,2012,04,Foodstuffs,042204,Wine,1701606.25
2,África,111,Nigeria,2013,2013,04,Foodstuffs,042204,Wine,1733284.875
2,África,111,Nigeria,2014,2014,04,Foodstuffs,042204,Wine,2755791.25
2,África,111,Nigeria,2015,2015,04,Foodstuffs,042204,Wine,1706518.5
2,África,111,Nigeria,2016,2016,04,Foodstuffs,042204,Wine,1024198.875
2,África,112,Sudáfrica,2011,2011,04,Foodstuffs,042204,Wine,781430.5
2,África,112,Sudáfrica,2012,2012,04,Foodstuffs,042204,Wine,305314.5
2,África,112,Sudáfrica,2013,2013,04,Foodstuffs,042204,Wine,502277.5
2,África,112,Sudáfrica,2014,2014,04,Foodstuffs,042204,Wine,537888.75
2,África,112,Sudáfrica,2015,2015,04,Foodstuffs,042204,Wine,468736.40625
2,África,112,Sudáfrica,2016,2016,04,Foodstuffs,042204,Wine,305766.21875
2,África,116,Zimbabwe,2012,2012,04,Foodstuffs,042204,Wine,36443.5
2,África,116,Zimbabwe,2014,2014,04,Foodstuffs,042204,Wine,31074.599609375
2,África,116,Zimbabwe,2015,2015,04,Foodstuffs,042204,Wine,25696.720703125
2,África,117,Zambia,2011,2011,04,Foodstuffs,042204,Wine,91920.9609375
2,África,117,Zambia,2012,2012,04,Foodstuffs,042204,Wine,131979.0
2,África,117,Zambia,2013,2013,04,Foodstuffs,042204,Wine,46013.0
2,África,117,Zambia,2014,2014,04,Foodstuffs,042204,Wine,91431.5390625
2,África,117,Zambia,2016,2016,04,Foodstuffs,042204,Wine,65197.78125
2,África,119,Mauricio,2011,2011,04,Foodstuffs,042204,Wine,369594.0
2,África,119,Mauricio,2012,2012,04,Foodstuffs,042204,Wine,355237.375
2,África,119,Mauricio,2013,2013,04,Foodstuffs,042204,Wine,448142.3125
2,África,119,Mauricio,2014,2014,04,Foodstuffs,042204,Wine,237229.5
2,África,119,Mauricio,2015,2015,04,Foodstuffs,042204,Wine,328977.0625
2,África,119,Mauricio,2016,2016,04,Foodstuffs,042204,Wine,370839.90625
2,África,120,Madagascar,2012,2012,04,Foodstuffs,042204,Wine,52670.1484375
2,África,120,Madagascar,2013,2013,04,Foodstuffs,042204,Wine,21702.150390625
2,África,120,Madagascar,2014,2014,04,Foodstuffs,042204,Wine,44575.01171875
2,África,120,Madagascar,2015,2015,04,Foodstuffs,042204,Wine,69012.3671875
2,África,120,Madagascar,2016,2016,04,Foodstuffs,042204,Wine,25884.5
2,África,121,Mozambique,2011,2011,04,Foodstuffs,042204,Wine,3018706.75
2,África,121,Mozambique,2012,2012,04,Foodstuffs,042204,Wine,2854719.5
2,África,121,Mozambique,2013,2013,04,Foodstuffs,042204,Wine,2850924.5
2,África,121,Mozambique,2014,2014,04,Foodstuffs,042204,Wine,1954262.75
2,África,121,Mozambique,2015,2015,04,Foodstuffs,042204,Wine,2997521.75
2,África,121,Mozambique,2016,2016,04,Foodstuffs,042204,Wine,4332612.5
2,África,126,Túnez,2013,2013,04,Foodstuffs,042204,Wine,1736.0
2,África,128,Marruecos,2011,2011,04,Foodstuffs,042204,Wine,166090.5
2,África,128,Marruecos,2012,2012,04,Foodstuffs,042204,Wine,149569.0
2,África,128,Marruecos,2013,2013,04,Foodstuffs,042204,Wine,1312363.875
2,África,128,Marruecos,2014,2014,04,Foodstuffs,042204,Wine,116291.0
2,África,128,Marruecos,2015,2015,04,Foodstuffs,042204,Wine,105647.0
2,África,128,Marruecos,2016,2016,04,Foodstuffs,042204,Wine,156420.0
2,África,131,Niger,2015,2015,04,Foodstuffs,042204,Wine,48808.0
2,África,133,Mali,2012,2012,04,Foodstuffs,042204,Wine,18938.560546875
2,África,135,Tanzania,2011,2011,04,Foodstuffs,042204,Wine,89967.125
2,África,135,Tanzania,2012,2012,04,Foodstuffs,042204,Wine,98277.5
2,África,135,Tanzania,2013,2013,04,Foodstuffs,042204,Wine,75854.3984375
2,África,135,Tanzania,2014,2014,04,Foodstuffs,042204,Wine,74196.8984375
2,África,135,Tanzania,2015,2015,04,Foodstuffs,042204,Wine,64358.6015625
2,África,135,Tanzania,2016,2016,04,Foodstuffs,042204,Wine,26263.69921875
2,África,136,Uganda,2012,2012,04,Foodstuffs,042204,Wine,10890.0
2,África,136,Uganda,2014,2014,04,Foodstuffs,042204,Wine,32720.400390625
2,África,136,Uganda,2015,2015,04,Foodstuffs,042204,Wine,30592.099609375
2,África,137,Kenya,2011,2011,04,Foodstuffs,042204,Wine,1476893.25
2,África,137,Kenya,2012,2012,04,Foodstuffs,042204,Wine,1525316.125
2,África,137,Kenya,2013,2013,04,Foodstuffs,042204,Wine,1625749.75
2,África,137,Kenya,2014,2014,04,Foodstuffs,042204,Wine,1552173.75
2,África,137,Kenya,2015,2015,04,Foodstuffs,042204,Wine,662693.0625
2,África,137,Kenya,2016,2016,04,Foodstuffs,042204,Wine,1149282.375
2,África,139,Etiopia,2012,2012,04,Foodstuffs,042204,Wine,28194.0
2,África,139,Etiopia,2013,2013,04,Foodstuffs,042204,Wine,45473.5
2,África,140,Angola,2011,2011,04,Foodstuffs,042204,Wine,2113650.0
2,África,140,Angola,2012,2012,04,Foodstuffs,042204,Wine,1239017.375
2,África,140,Angola,2013,2013,04,Foodstuffs,042204,Wine,591595.8125
2,África,140,Angola,2014,2014,04,Foodstuffs,042204,Wine,692860.0625
2,África,140,Angola,2015,2015,04,Foodstuffs,042204,Wine,483317.8125
2,África,140,Angola,2016,2016,04,Foodstuffs,042204,Wine,330636.375
2,África,143,"Congo (ex Zaire), República Democrática del",2011,2011,04,Foodstuffs,042204,Wine,30665.0
2,África,143,"Congo (ex Zaire), República Democrática del",2012,2012,04,Foodstuffs,042204,Wine,32059.0
2,África,143,"Congo (ex Zaire), República Democrática del",2013,2013,04,Foodstuffs,042204,Wine,32712.0
2,África,143,"Congo (ex Zaire), República Democrática del",2014,2014,04,Foodstuffs,042204,Wine,41216.0
2,África,143,"Congo (ex Zaire), República Democrática del",2015,2015,04,Foodstuffs,042204,Wine,81624.0
2,África,143,"Congo (ex Zaire), República Democrática del",2016,2016,04,Foodstuffs,042204,Wine,50736.0
2,África,145,Gabón,2011,2011,04,Foodstuffs,042204,Wine,138572.0
2,África,145,Gabón,2012,2012,04,Foodstuffs,042204,Wine,109432.0
2,África,145,Gabón,2013,2013,04,Foodstuffs,042204,Wine,104362.0
2,África,145,Gabón,2014,2014,04,Foodstuffs,042204,Wine,102619.0
2,África,145,Gabón,2015,2015,04,Foodstuffs,042204,Wine,112991.25
2,África,145,Gabón,2016,2016,04,Foodstuffs,042204,Wine,134902.25
2,África,146,Santo Tomé y Principe,2013,2013,04,Foodstuffs,042204,Wine,1851.0
2,África,147,Guinea Ecuatorial,2011,2011,04,Foodstuffs,042204,Wine,85301.0
2,África,147,Guinea Ecuatorial,2012,2012,04,Foodstuffs,042204,Wine,215547.15625
2,África,147,Guinea Ecuatorial,2013,2013,04,Foodstuffs,042204,Wine,231293.09375
2,África,147,Guinea Ecuatorial,2014,2014,04,Foodstuffs,042204,Wine,237173.0
2,África,147,Guinea Ecuatorial,2015,2015,04,Foodstuffs,042204,Wine,296270.5
2,África,147,Guinea Ecuatorial,2016,2016,04,Foodstuffs,042204,Wine,332198.0625
2,África,149,Camerún,2011,2011,04,Foodstuffs,042204,Wine,390362.4375
2,África,149,Camerún,2012,2012,04,Foodstuffs,042204,Wine,339865.34375
2,África,149,Camerún,2013,2013,04,Foodstuffs,042204,Wine,624063.25
2,África,149,Camerún,2014,2014,04,Foodstuffs,042204,Wine,240166.5
2,África,149,Camerún,2015,2015,04,Foodstuffs,042204,Wine,79125.5
2,África,149,Camerún,2016,2016,04,Foodstuffs,042204,Wine,116677.0
2,África,150,Benin,2011,2011,04,Foodstuffs,042204,Wine,405684.0
2,África,150,Benin,2014,2014,04,Foodstuffs,042204,Wine,12936.0
2,África,150,Benin,2015,2015,04,Foodstuffs,042204,Wine,369246.3125
2,África,150,Benin,2016,2016,04,Foodstuffs,042204,Wine,375042.28125
2,África,156,Seychelles,2011,2011,04,Foodstuffs,042204,Wine,130815.796875
2,África,156,Seychelles,2012,2012,04,Foodstuffs,042204,Wine,220279.0
2,África,156,Seychelles,2013,2013,04,Foodstuffs,042204,Wine,166888.5
2,África,156,Seychelles,2014,2014,04,Foodstuffs,042204,Wine,218997.0
2,África,156,Seychelles,2015,2015,04,Foodstuffs,042204,Wine,228632.296875
2,África,156,Seychelles,2016,2016,04,Foodstuffs,042204,Wine,152923.34375
2,África,161,Burkina Faso,2011,2011,04,Foodstuffs,042204,Wine,100267.8515625
2,África,161,Burkina Faso,2012,2012,04,Foodstuffs,042204,Wine,44845.0
2,África,161,Burkina Faso,2013,2013,04,Foodstuffs,042204,Wine,173156.546875
2,África,161,Burkina Faso,2014,2014,04,Foodstuffs,042204,Wine,166263.34375
2,África,161,Burkina Faso,2015,2015,04,Foodstuffs,042204,Wine,195578.15625
2,África,161,Burkina Faso,2016,2016,04,Foodstuffs,042204,Wine,127170.0
9,Oceanía,401,Fiji,2011,2011,04,Foodstuffs,042204,Wine,78280.0
9,Oceanía,401,Fiji,2012,2012,04,Foodstuffs,042204,Wine,151741.5
9,Oceanía,401,Fiji,2013,2013,04,Foodstuffs,042204,Wine,148893.0
9,Oceanía,401,Fiji,2014,2014,04,Foodstuffs,042204,Wine,241579.0
9,Oceanía,401,Fiji,2015,2015,04,Foodstuffs,042204,Wine,319963.0
9,Oceanía,401,Fiji,2016,2016,04,Foodstuffs,042204,Wine,231364.5
9,Oceanía,403,Tonga (Isla Tonga),2013,2013,04,Foodstuffs,042204,Wine,1776.0
9,Oceanía,403,Tonga (Isla Tonga),2014,2014,04,Foodstuffs,042204,Wine,7392.0
9,Oceanía,403,Tonga (Isla Tonga),2015,2015,04,Foodstuffs,042204,Wine,14885.349609375
9,Oceanía,403,Tonga (Isla Tonga),2016,2016,04,Foodstuffs,042204,Wine,13514.4404296875
9,Oceanía,404,Samoa Occidental,2011,2011,04,Foodstuffs,042204,Wine,2600.0
9,Oceanía,405,Nueva Zelandia,2011,2011,04,Foodstuffs,042204,Wine,583438.0625
9,Oceanía,405,Nueva Zelandia,2012,2012,04,Foodstuffs,042204,Wine,2662689.5
9,Oceanía,405,Nueva Zelandia,2013,2013,04,Foodstuffs,042204,Wine,2445333.25
9,Oceanía,405,Nueva Zelandia,2014,2014,04,Foodstuffs,042204,Wine,2295720.75
9,Oceanía,405,Nueva Zelandia,2015,2015,04,Foodstuffs,042204,Wine,2161221.0
9,Oceanía,405,Nueva Zelandia,2016,2016,04,Foodstuffs,042204,Wine,2039768.25
9,Oceanía,406,Australia,2011,2011,04,Foodstuffs,042204,Wine,4725403.5
9,Oceanía,406,Australia,2012,2012,04,Foodstuffs,042204,Wine,2832183.0
9,Oceanía,406,Australia,2013,2013,04,Foodstuffs,042204,Wine,3967581.5
9,Oceanía,406,Australia,2014,2014,04,Foodstuffs,042204,Wine,3043448.75
9,Oceanía,406,Australia,2015,2015,04,Foodstuffs,042204,Wine,4718065.0
9,Oceanía,406,Australia,2016,2016,04,Foodstuffs,042204,Wine,3399302.75
9,Oceanía,421,Niue,2011,2011,04,Foodstuffs,042204,Wine,19007.5
9,Oceanía,421,Niue,2012,2012,04,Foodstuffs,042204,Wine,13182.0
9,Oceanía,421,Niue,2013,2013,04,Foodstuffs,042204,Wine,10988.0
9,Oceanía,422,Polinesia Francesa,2011,2011,04,Foodstuffs,042204,Wine,218412.359375
9,Oceanía,422,Polinesia Francesa,2012,2012,04,Foodstuffs,042204,Wine,112009.40625
9,Oceanía,422,Polinesia Francesa,2013,2013,04,Foodstuffs,042204,Wine,122204.4296875
9,Oceanía,422,Polinesia Francesa,2014,2014,04,Foodstuffs,042204,Wine,117484.421875
9,Oceanía,422,Polinesia Francesa,2015,2015,04,Foodstuffs,042204,Wine,160257.140625
9,Oceanía,422,Polinesia Francesa,2016,2016,04,Foodstuffs,042204,Wine,201559.0625
9,Oceanía,423,Nueva Caledonia,2011,2011,04,Foodstuffs,042204,Wine,77786.46875
9,Oceanía,423,Nueva Caledonia,2012,2012,04,Foodstuffs,042204,Wine,62307.5
9,Oceanía,423,Nueva Caledonia,2013,2013,04,Foodstuffs,042204,Wine,64304.7109375
9,Oceanía,423,Nueva Caledonia,2014,2014,04,Foodstuffs,042204,Wine,86562.3125
9,Oceanía,423,Nueva Caledonia,2015,2015,04,Foodstuffs,042204,Wine,13504.5
9,Oceanía,423,Nueva Caledonia,2016,2016,04,Foodstuffs,042204,Wine,68800.0
9,Oceanía,425,Guam,2011,2011,04,Foodstuffs,042204,Wine,9072.0
9,Oceanía,425,Guam,2012,2012,04,Foodstuffs,042204,Wine,34804.0
9,Oceanía,425,Guam,2013,2013,04,Foodstuffs,042204,Wine,1120.0
9,Oceanía,425,Guam,2014,2014,04,Foodstuffs,042204,Wine,51182.0
9,Oceanía,425,Guam,2015,2015,04,Foodstuffs,042204,Wine,121866.203125
9,Oceanía,425,Guam,2016,2016,04,Foodstuffs,042204,Wine,32030.0
9,Oceanía,427,Islas Cook,2011,2011,04,Foodstuffs,042204,Wine,11412.0
9,Oceanía,427,Islas Cook,2012,2012,04,Foodstuffs,042204,Wine,12370.0
9,Oceanía,427,Islas Cook,2013,2013,04,Foodstuffs,042204,Wine,12539.0
9,Oceanía,427,Islas Cook,2014,2014,04,Foodstuffs,042204,Wine,11064.0
9,Oceanía,427,Islas Cook,2015,2015,04,Foodstuffs,042204,Wine,5342.0
9,Oceanía,427,Islas Cook,2016,2016,04,Foodstuffs,042204,Wine,11772.0
19,América,201,Venezuela,2011,2011,04,Foodstuffs,042204,Wine,25264134.0
19,América,201,Venezuela,2012,2012,04,Foodstuffs,042204,Wine,30473286.0
19,América,201,Venezuela,2013,2013,04,Foodstuffs,042204,Wine,11571784.0
19,América,201,Venezuela,2014,2014,04,Foodstuffs,042204,Wine,20886200.0
19,América,201,Venezuela,2015,2015,04,Foodstuffs,042204,Wine,3529561.75
19,América,201,Venezuela,2016,2016,04,Foodstuffs,042204,Wine,2836282.25
19,América,202,Colombia,2011,2011,04,Foodstuffs,042204,Wine,19680910.0
19,América,202,Colombia,2012,2012,04,Foodstuffs,042204,Wine,23029002.0
19,América,202,Colombia,2013,2013,04,Foodstuffs,042204,Wine,21731936.0
19,América,202,Colombia,2014,2014,04,Foodstuffs,042204,Wine,22732742.0
19,América,202,Colombia,2015,2015,04,Foodstuffs,042204,Wine,23763192.0
19,América,202,Colombia,2016,2016,04,Foodstuffs,042204,Wine,28178454.0
19,América,203,Trinidad y Tobago,2011,2011,04,Foodstuffs,042204,Wine,619453.625
19,América,203,Trinidad y Tobago,2012,2012,04,Foodstuffs,042204,Wine,487280.0625
19,América,203,Trinidad y Tobago,2013,2013,04,Foodstuffs,042204,Wine,455188.34375
19,América,203,Trinidad y Tobago,2014,2014,04,Foodstuffs,042204,Wine,556882.0
19,América,203,Trinidad y Tobago,2015,2015,04,Foodstuffs,042204,Wine,455579.0625
19,América,203,Trinidad y Tobago,2016,2016,04,Foodstuffs,042204,Wine,370810.5
19,América,204,Barbados,2011,2011,04,Foodstuffs,042204,Wine,672075.875
19,América,204,Barbados,2012,2012,04,Foodstuffs,042204,Wine,796339.5625
19,América,204,Barbados,2013,2013,04,Foodstuffs,042204,Wine,721493.5
19,América,204,Barbados,2014,2014,04,Foodstuffs,042204,Wine,625762.25
19,América,204,Barbados,2015,2015,04,Foodstuffs,042204,Wine,703815.1875
19,América,204,Barbados,2016,2016,04,Foodstuffs,042204,Wine,589498.4375
19,América,205,Jamaica,2011,2011,04,Foodstuffs,042204,Wine,1062825.375
19,América,205,Jamaica,2012,2012,04,Foodstuffs,042204,Wine,734967.3125
19,América,205,Jamaica,2013,2013,04,Foodstuffs,042204,Wine,840664.9375
19,América,205,Jamaica,2014,2014,04,Foodstuffs,042204,Wine,621319.0625
19,América,205,Jamaica,2015,2015,04,Foodstuffs,042204,Wine,896155.3125
19,América,205,Jamaica,2016,2016,04,Foodstuffs,042204,Wine,518221.125
19,América,206,República Dominicana,2011,2011,04,Foodstuffs,042204,Wine,5173801.5
19,América,206,República Dominicana,2012,2012,04,Foodstuffs,042204,Wine,5333296.0
19,América,206,República Dominicana,2013,2013,04,Foodstuffs,042204,Wine,4516512.5
19,América,206,República Dominicana,2014,2014,04,Foodstuffs,042204,Wine,5877784.5
19,América,206,República Dominicana,2015,2015,04,Foodstuffs,042204,Wine,5638807.0
19,América,206,República Dominicana,2016,2016,04,Foodstuffs,042204,Wine,4746628.0
19,América,207,Bahamas,2011,2011,04,Foodstuffs,042204,Wine,947524.3125
19,América,207,Bahamas,2012,2012,04,Foodstuffs,042204,Wine,910329.0625
19,América,207,Bahamas,2013,2013,04,Foodstuffs,042204,Wine,1106155.0
19,América,207,Bahamas,2014,2014,04,Foodstuffs,042204,Wine,821423.75
19,América,207,Bahamas,2015,2015,04,Foodstuffs,042204,Wine,1293288.25
19,América,207,Bahamas,2016,2016,04,Foodstuffs,042204,Wine,925515.75
19,América,208,Haití,2011,2011,04,Foodstuffs,042204,Wine,786875.875
19,América,208,Haití,2012,2012,04,Foodstuffs,042204,Wine,630485.5
19,América,208,Haití,2013,2013,04,Foodstuffs,042204,Wine,757443.375
19,América,208,Haití,2014,2014,04,Foodstuffs,042204,Wine,669115.8125
19,América,208,Haití,2015,2015,04,Foodstuffs,042204,Wine,586645.4375
19,América,208,Haití,2016,2016,04,Foodstuffs,042204,Wine,481769.21875
19,América,209,Cuba,2011,2011,04,Foodstuffs,042204,Wine,1612805.75
19,América,209,Cuba,2012,2012,04,Foodstuffs,042204,Wine,1540434.5
19,América,209,Cuba,2013,2013,04,Foodstuffs,042204,Wine,2457658.75
19,América,209,Cuba,2014,2014,04,Foodstuffs,042204,Wine,1983713.625
19,América,209,Cuba,2015,2015,04,Foodstuffs,042204,Wine,3285434.5
19,América,209,Cuba,2016,2016,04,Foodstuffs,042204,Wine,4115013.25
19,América,210,Panamá,2011,2011,04,Foodstuffs,042204,Wine,7922159.5
19,América,210,Panamá,2012,2012,04,Foodstuffs,042204,Wine,8081199.5
19,América,210,Panamá,2013,2013,04,Foodstuffs,042204,Wine,8040460.5
19,América,210,Panamá,2014,2014,04,Foodstuffs,042204,Wine,7835378.0
19,América,210,Panamá,2015,2015,04,Foodstuffs,042204,Wine,7511747.0
19,América,210,Panamá,2016,2016,04,Foodstuffs,042204,Wine,7561152.5
19,América,211,Costa Rica,2011,2011,04,Foodstuffs,042204,Wine,9145991.0
19,América,211,Costa Rica,2012,2012,04,Foodstuffs,042204,Wine,8891852.0
19,América,211,Costa Rica,2013,2013,04,Foodstuffs,042204,Wine,9957815.0
19,América,211,Costa Rica,2014,2014,04,Foodstuffs,042204,Wine,10842359.0
19,América,211,Costa Rica,2015,2015,04,Foodstuffs,042204,Wine,9957207.0
19,América,211,Costa Rica,2016,2016,04,Foodstuffs,042204,Wine,9943606.0
19,América,212,Nicaragua,2011,2011,04,Foodstuffs,042204,Wine,1021449.0
19,América,212,Nicaragua,2012,2012,04,Foodstuffs,042204,Wine,1006318.375
19,América,212,Nicaragua,2013,2013,04,Foodstuffs,042204,Wine,1249723.375
19,América,212,Nicaragua,2014,2014,04,Foodstuffs,042204,Wine,1019760.875
19,América,212,Nicaragua,2015,2015,04,Foodstuffs,042204,Wine,1128336.125
19,América,212,Nicaragua,2016,2016,04,Foodstuffs,042204,Wine,1330327.25
19,América,213,El Salvador,2011,2011,04,Foodstuffs,042204,Wine,1824527.0
19,América,213,El Salvador,2012,2012,04,Foodstuffs,042204,Wine,1622473.625
19,América,213,El Salvador,2013,2013,04,Foodstuffs,042204,Wine,2112189.0
19,América,213,El Salvador,2014,2014,04,Foodstuffs,042204,Wine,1945968.25
19,América,213,El Salvador,2015,2015,04,Foodstuffs,042204,Wine,2053120.375
19,América,213,El Salvador,2016,2016,04,Foodstuffs,042204,Wine,2226188.0
19,América,214,Honduras,2011,2011,04,Foodstuffs,042204,Wine,1067746.375
19,América,214,Honduras,2012,2012,04,Foodstuffs,042204,Wine,1353980.75
19,América,214,Honduras,2013,2013,04,Foodstuffs,042204,Wine,867450.4375
19,América,214,Honduras,2014,2014,04,Foodstuffs,042204,Wine,887142.375
19,América,214,Honduras,2015,2015,04,Foodstuffs,042204,Wine,1223892.5
19,América,214,Honduras,2016,2016,04,Foodstuffs,042204,Wine,1315470.5
19,América,215,Guatemala,2011,2011,04,Foodstuffs,042204,Wine,2453588.0
19,América,215,Guatemala,2012,2012,04,Foodstuffs,042204,Wine,2680604.5
19,América,215,Guatemala,2013,2013,04,Foodstuffs,042204,Wine,3307577.5
19,América,215,Guatemala,2014,2014,04,Foodstuffs,042204,Wine,3275640.25
19,América,215,Guatemala,2015,2015,04,Foodstuffs,042204,Wine,3385120.75
19,América,215,Guatemala,2016,2016,04,Foodstuffs,042204,Wine,3055708.0
19,América,216,México,2011,2011,04,Foodstuffs,042204,Wine,33988836.0
19,América,216,México,2012,2012,04,Foodstuffs,042204,Wine,33935404.0
19,América,216,México,2013,2013,04,Foodstuffs,042204,Wine,38554272.0
19,América,216,México,2014,2014,04,Foodstuffs,042204,Wine,34665856.0
19,América,216,México,2015,2015,04,Foodstuffs,042204,Wine,37988584.0
19,América,216,México,2016,2016,04,Foodstuffs,042204,Wine,39943816.0
19,América,217,Guyana,2011,2011,04,Foodstuffs,042204,Wine,131416.09375
19,América,217,Guyana,2012,2012,04,Foodstuffs,042204,Wine,107898.46875
19,América,217,Guyana,2013,2013,04,Foodstuffs,042204,Wine,99444.796875
19,América,217,Guyana,2014,2014,04,Foodstuffs,042204,Wine,70804.0
19,América,217,Guyana,2015,2015,04,Foodstuffs,042204,Wine,43951.19921875
19,América,217,Guyana,2016,2016,04,Foodstuffs,042204,Wine,123022.5390625
19,América,218,Ecuador,2011,2011,04,Foodstuffs,042204,Wine,5730113.5
19,América,218,Ecuador,2012,2012,04,Foodstuffs,042204,Wine,7698692.5
19,América,218,Ecuador,2013,2013,04,Foodstuffs,042204,Wine,6748760.0
19,América,218,Ecuador,2014,2014,04,Foodstuffs,042204,Wine,8226682.5
19,América,218,Ecuador,2015,2015,04,Foodstuffs,042204,Wine,5730104.0
19,América,218,Ecuador,2016,2016,04,Foodstuffs,042204,Wine,6179495.0
19,América,219,Perú,2011,2011,04,Foodstuffs,042204,Wine,9097748.0
19,América,219,Perú,2012,2012,04,Foodstuffs,042204,Wine,8818726.0
19,América,219,Perú,2013,2013,04,Foodstuffs,042204,Wine,8847753.0
19,América,219,Perú,2014,2014,04,Foodstuffs,042204,Wine,9170836.0
19,América,219,Perú,2015,2015,04,Foodstuffs,042204,Wine,9409499.0
19,América,219,Perú,2016,2016,04,Foodstuffs,042204,Wine,8373665.0
19,América,220,Brasil,2011,2011,04,Foodstuffs,042204,Wine,89943760.0
19,América,220,Brasil,2012,2012,04,Foodstuffs,042204,Wine,95308328.0
19,América,220,Brasil,2013,2013,04,Foodstuffs,042204,Wine,93316504.0
19,América,220,Brasil,2014,2014,04,Foodstuffs,042204,Wine,110865352.0
19,América,220,Brasil,2015,2015,04,Foodstuffs,042204,Wine,113515280.0
19,América,220,Brasil,2016,2016,04,Foodstuffs,042204,Wine,123162328.0
19,América,221,Bolivia,2011,2011,04,Foodstuffs,042204,Wine,837127.4375
19,América,221,Bolivia,2012,2012,04,Foodstuffs,042204,Wine,1239740.0
19,América,221,Bolivia,2013,2013,04,Foodstuffs,042204,Wine,937770.9375
19,América,221,Bolivia,2014,2014,04,Foodstuffs,042204,Wine,875340.0
19,América,221,Bolivia,2015,2015,04,Foodstuffs,042204,Wine,866323.3125
19,América,221,Bolivia,2016,2016,04,Foodstuffs,042204,Wine,597981.375
19,América,222,Paraguay,2011,2011,04,Foodstuffs,042204,Wine,14301724.0
19,América,222,Paraguay,2012,2012,04,Foodstuffs,042204,Wine,15321838.0
19,América,222,Paraguay,2013,2013,04,Foodstuffs,042204,Wine,16704835.0
19,América,222,Paraguay,2014,2014,04,Foodstuffs,042204,Wine,14038645.0
19,América,222,Paraguay,2015,2015,04,Foodstuffs,042204,Wine,13717691.0
19,América,222,Paraguay,2016,2016,04,Foodstuffs,042204,Wine,16632113.0
19,América,223,Uruguay,2011,2011,04,Foodstuffs,042204,Wine,11944223.0
19,América,223,Uruguay,2012,2012,04,Foodstuffs,042204,Wine,11492796.0
19,América,223,Uruguay,2013,2013,04,Foodstuffs,042204,Wine,10643868.0
19,América,223,Uruguay,2014,2014,04,Foodstuffs,042204,Wine,10345351.0
19,América,223,Uruguay,2015,2015,04,Foodstuffs,042204,Wine,7031217.0
19,América,223,Uruguay,2016,2016,04,Foodstuffs,042204,Wine,6354623.5
19,América,224,Argentina,2011,2011,04,Foodstuffs,042204,Wine,5173719.0
19,América,224,Argentina,2012,2012,04,Foodstuffs,042204,Wine,338697.59375
19,América,224,Argentina,2013,2013,04,Foodstuffs,042204,Wine,435261.71875
19,América,224,Argentina,2014,2014,04,Foodstuffs,042204,Wine,350888.71875
19,América,224,Argentina,2015,2015,04,Foodstuffs,042204,Wine,945599.6875
19,América,224,Argentina,2016,2016,04,Foodstuffs,042204,Wine,5224707.5
19,América,225,Estados Unidos de América,2011,2011,04,Foodstuffs,042204,Wine,273055456.0
19,América,225,Estados Unidos de América,2012,2012,04,Foodstuffs,042204,Wine,298727584.0
19,América,225,Estados Unidos de América,2013,2013,04,Foodstuffs,042204,Wine,287078944.0
19,América,225,Estados Unidos de América,2014,2014,04,Foodstuffs,042204,Wine,262278832.0
19,América,225,Estados Unidos de América,2015,2015,04,Foodstuffs,042204,Wine,249785568.0
19,América,225,Estados Unidos de América,2016,2016,04,Foodstuffs,042204,Wine,246307216.0
19,América,226,Canadá,2011,2011,04,Foodstuffs,042204,Wine,93122320.0
19,América,226,Canadá,2012,2012,04,Foodstuffs,042204,Wine,92502504.0
19,América,226,Canadá,2013,2013,04,Foodstuffs,042204,Wine,91712480.0
19,América,226,Canadá,2014,2014,04,Foodstuffs,042204,Wine,94359624.0
19,América,226,Canadá,2015,2015,04,Foodstuffs,042204,Wine,90261112.0
19,América,226,Canadá,2016,2016,04,Foodstuffs,042204,Wine,96130696.0
19,América,231,Dominica,2011,2011,04,Foodstuffs,042204,Wine,74737.953125
19,América,231,Dominica,2012,2012,04,Foodstuffs,042204,Wine,48941.1015625
19,América,231,Dominica,2013,2013,04,Foodstuffs,042204,Wine,70243.7734375
19,América,231,Dominica,2014,2014,04,Foodstuffs,042204,Wine,35041.0
19,América,231,Dominica,2015,2015,04,Foodstuffs,042204,Wine,60449.8984375
19,América,231,Dominica,2016,2016,04,Foodstuffs,042204,Wine,55023.5
19,América,232,Granada,2011,2011,04,Foodstuffs,042204,Wine,312020.21875
19,América,232,Granada,2012,2012,04,Foodstuffs,042204,Wine,332333.5
19,América,232,Granada,2013,2013,04,Foodstuffs,042204,Wine,349972.65625
19,América,232,Granada,2014,2014,04,Foodstuffs,042204,Wine,323896.53125
19,América,232,Granada,2015,2015,04,Foodstuffs,042204,Wine,445318.1875
19,América,232,Granada,2016,2016,04,Foodstuffs,042204,Wine,287447.0625
19,América,233,Santa Lucia y Islas  Occidentales,2011,2011,04,Foodstuffs,042204,Wine,371256.40625
19,América,233,Santa Lucia y Islas  Occidentales,2012,2012,04,Foodstuffs,042204,Wine,445392.9375
19,América,233,Santa Lucia y Islas  Occidentales,2013,2013,04,Foodstuffs,042204,Wine,445956.0
19,América,233,Santa Lucia y Islas  Occidentales,2014,2014,04,Foodstuffs,042204,Wine,508748.8125
19,América,233,Santa Lucia y Islas  Occidentales,2015,2015,04,Foodstuffs,042204,Wine,376951.125
19,América,233,Santa Lucia y Islas  Occidentales,2016,2016,04,Foodstuffs,042204,Wine,467856.96875
19,América,234,San Vicente y las Granadinas,2011,2011,04,Foodstuffs,042204,Wine,67284.296875
19,América,234,San Vicente y las Granadinas,2012,2012,04,Foodstuffs,042204,Wine,16187.5
19,América,234,San Vicente y las Granadinas,2013,2013,04,Foodstuffs,042204,Wine,43685.3984375
19,América,234,San Vicente y las Granadinas,2014,2014,04,Foodstuffs,042204,Wine,121219.3515625
19,América,234,San Vicente y las Granadinas,2015,2015,04,Foodstuffs,042204,Wine,111933.3515625
19,América,234,San Vicente y las Granadinas,2016,2016,04,Foodstuffs,042204,Wine,78192.296875
19,América,235,Suriname,2011,2011,04,Foodstuffs,042204,Wine,167271.203125
19,América,235,Suriname,2012,2012,04,Foodstuffs,042204,Wine,182309.421875
19,América,235,Suriname,2013,2013,04,Foodstuffs,042204,Wine,174734.65625
19,América,235,Suriname,2014,2014,04,Foodstuffs,042204,Wine,379959.5
19,América,235,Suriname,2015,2015,04,Foodstuffs,042204,Wine,182892.59375
19,América,235,Suriname,2016,2016,04,Foodstuffs,042204,Wine,152214.59375
19,América,236,Belice,2011,2011,04,Foodstuffs,042204,Wine,266933.0625
19,América,236,Belice,2012,2012,04,Foodstuffs,042204,Wine,377136.78125
19,América,236,Belice,2013,2013,04,Foodstuffs,042204,Wine,373779.4375
19,América,236,Belice,2014,2014,04,Foodstuffs,042204,Wine,505687.46875
19,América,236,Belice,2015,2015,04,Foodstuffs,042204,Wine,348489.3125
19,América,236,Belice,2016,2016,04,Foodstuffs,042204,Wine,401264.75
19,América,240,Antigua y Barbuda,2011,2011,04,Foodstuffs,042204,Wine,541427.8125
19,América,240,Antigua y Barbuda,2012,2012,04,Foodstuffs,042204,Wine,540316.5
19,América,240,Antigua y Barbuda,2013,2013,04,Foodstuffs,042204,Wine,642023.625
19,América,240,Antigua y Barbuda,2014,2014,04,Foodstuffs,042204,Wine,564243.25
19,América,240,Antigua y Barbuda,2015,2015,04,Foodstuffs,042204,Wine,560485.125
19,América,240,Antigua y Barbuda,2016,2016,04,Foodstuffs,042204,Wine,528912.875
19,América,241,Saint Kitts & Nevis,2011,2011,04,Foodstuffs,042204,Wine,12695.0
19,América,241,Saint Kitts & Nevis,2012,2012,04,Foodstuffs,042204,Wine,21130.560546875
19,América,241,Saint Kitts & Nevis,2013,2013,04,Foodstuffs,042204,Wine,44209.0
19,América,241,Saint Kitts & Nevis,2014,2014,04,Foodstuffs,042204,Wine,82140.0
19,América,241,Saint Kitts & Nevis,2015,2015,04,Foodstuffs,042204,Wine,180609.546875
19,América,241,Saint Kitts & Nevis,2016,2016,04,Foodstuffs,042204,Wine,84161.25
19,América,242,Anguila,2011,2011,04,Foodstuffs,042204,Wine,49885.1015625
19,América,242,Anguila,2012,2012,04,Foodstuffs,042204,Wine,106747.8984375
19,América,242,Anguila,2013,2013,04,Foodstuffs,042204,Wine,87132.953125
19,América,242,Anguila,2014,2014,04,Foodstuffs,042204,Wine,59107.30078125
19,América,242,Anguila,2015,2015,04,Foodstuffs,042204,Wine,102442.3984375
19,América,242,Anguila,2016,2016,04,Foodstuffs,042204,Wine,90574.0078125
19,América,243,Aruba,2011,2011,04,Foodstuffs,042204,Wine,1791198.625
19,América,243,Aruba,2012,2012,04,Foodstuffs,042204,Wine,1536280.25
19,América,243,Aruba,2013,2013,04,Foodstuffs,042204,Wine,2042477.75
19,América,243,Aruba,2014,2014,04,Foodstuffs,042204,Wine,1636359.25
19,América,243,Aruba,2015,2015,04,Foodstuffs,042204,Wine,1964328.25
19,América,243,Aruba,2016,2016,04,Foodstuffs,042204,Wine,1464782.0
19,América,244,Bermudas,2011,2011,04,Foodstuffs,042204,Wine,336101.1875
19,América,244,Bermudas,2012,2012,04,Foodstuffs,042204,Wine,324465.9375
19,América,244,Bermudas,2013,2013,04,Foodstuffs,042204,Wine,354097.125
19,América,244,Bermudas,2014,2014,04,Foodstuffs,042204,Wine,456500.21875
19,América,244,Bermudas,2015,2015,04,Foodstuffs,042204,Wine,386597.59375
19,América,244,Bermudas,2016,2016,04,Foodstuffs,042204,Wine,289427.15625
19,América,246,Islas Caimán,2011,2011,04,Foodstuffs,042204,Wine,471901.75
19,América,246,Islas Caimán,2012,2012,04,Foodstuffs,042204,Wine,525186.6875
19,América,246,Islas Caimán,2013,2013,04,Foodstuffs,042204,Wine,430655.75
19,América,246,Islas Caimán,2014,2014,04,Foodstuffs,042204,Wine,457123.5625
19,América,246,Islas Caimán,2015,2015,04,Foodstuffs,042204,Wine,374666.5625
19,América,246,Islas Caimán,2016,2016,04,Foodstuffs,042204,Wine,354215.0
19,América,248,Turcas y Caicos,2011,2011,04,Foodstuffs,042204,Wine,254113.6875
19,América,248,Turcas y Caicos,2012,2012,04,Foodstuffs,042204,Wine,252551.796875
19,América,248,Turcas y Caicos,2013,2013,04,Foodstuffs,042204,Wine,261974.625
19,América,248,Turcas y Caicos,2014,2014,04,Foodstuffs,042204,Wine,280071.1875
19,América,248,Turcas y Caicos,2015,2015,04,Foodstuffs,042204,Wine,288091.5
19,América,248,Turcas y Caicos,2016,2016,04,Foodstuffs,042204,Wine,153282.0
19,América,249,Islas Vírgenes (Estados Unidos de América),2011,2011,04,Foodstuffs,042204,Wine,467593.375
19,América,249,Islas Vírgenes (Estados Unidos de América),2012,2012,04,Foodstuffs,042204,Wine,526674.625
19,América,249,Islas Vírgenes (Estados Unidos de América),2013,2013,04,Foodstuffs,042204,Wine,659844.3125
19,América,249,Islas Vírgenes (Estados Unidos de América),2014,2014,04,Foodstuffs,042204,Wine,685953.1875
19,América,249,Islas Vírgenes (Estados Unidos de América),2015,2015,04,Foodstuffs,042204,Wine,343308.53125
19,América,249,Islas Vírgenes (Estados Unidos de América),2016,2016,04,Foodstuffs,042204,Wine,211342.859375
19,América,250,Martinica,2011,2011,04,Foodstuffs,042204,Wine,103376.8984375
19,América,250,Martinica,2012,2012,04,Foodstuffs,042204,Wine,78229.203125
19,América,250,Martinica,2013,2013,04,Foodstuffs,042204,Wine,51328.66015625
19,América,250,Martinica,2014,2014,04,Foodstuffs,042204,Wine,91247.296875
19,América,250,Martinica,2015,2015,04,Foodstuffs,042204,Wine,116161.25
19,América,250,Martinica,2016,2016,04,Foodstuffs,042204,Wine,56154.94921875
19,América,251,Puerto Rico,2011,2011,04,Foodstuffs,042204,Wine,3893263.5
19,América,251,Puerto Rico,2012,2012,04,Foodstuffs,042204,Wine,3912872.5
19,América,251,Puerto Rico,2013,2013,04,Foodstuffs,042204,Wine,3684893.75
19,América,251,Puerto Rico,2014,2014,04,Foodstuffs,042204,Wine,3673826.0
19,América,251,Puerto Rico,2015,2015,04,Foodstuffs,042204,Wine,3411963.5
19,América,251,Puerto Rico,2016,2016,04,Foodstuffs,042204,Wine,3127239.5
142,Asia,301,Jordania,2011,2011,04,Foodstuffs,042204,Wine,197338.0
142,Asia,301,Jordania,2012,2012,04,Foodstuffs,042204,Wine,207104.203125
142,Asia,301,Jordania,2013,2013,04,Foodstuffs,042204,Wine,243846.5
142,Asia,301,Jordania,2014,2014,04,Foodstuffs,042204,Wine,394534.5
142,Asia,301,Jordania,2015,2015,04,Foodstuffs,042204,Wine,281755.5
142,Asia,301,Jordania,2016,2016,04,Foodstuffs,042204,Wine,284618.84375
142,Asia,302,Arabia Saudita,2012,2012,04,Foodstuffs,042204,Wine,51474.0
142,Asia,302,Arabia Saudita,2013,2013,04,Foodstuffs,042204,Wine,79991.0
142,Asia,302,Arabia Saudita,2014,2014,04,Foodstuffs,042204,Wine,18277.5
142,Asia,304,Omán,2013,2013,04,Foodstuffs,042204,Wine,11592.0
142,Asia,305,Chipre,2011,2011,04,Foodstuffs,042204,Wine,820623.9375
142,Asia,305,Chipre,2012,2012,04,Foodstuffs,042204,Wine,633227.6875
142,Asia,305,Chipre,2013,2013,04,Foodstuffs,042204,Wine,624369.5
142,Asia,305,Chipre,2014,2014,04,Foodstuffs,042204,Wine,1047359.375
142,Asia,305,Chipre,2015,2015,04,Foodstuffs,042204,Wine,878849.0
142,Asia,305,Chipre,2016,2016,04,Foodstuffs,042204,Wine,842494.25
142,Asia,306,Israel,2011,2011,04,Foodstuffs,042204,Wine,1789527.25
142,Asia,306,Israel,2012,2012,04,Foodstuffs,042204,Wine,980356.375
142,Asia,306,Israel,2013,2013,04,Foodstuffs,042204,Wine,1218094.0
142,Asia,306,Israel,2014,2014,04,Foodstuffs,042204,Wine,1392505.75
142,Asia,306,Israel,2015,2015,04,Foodstuffs,042204,Wine,1264029.0
142,Asia,306,Israel,2016,2016,04,Foodstuffs,042204,Wine,1153239.875
142,Asia,307,Iraq,2012,2012,04,Foodstuffs,042204,Wine,43108.80078125
142,Asia,307,Iraq,2013,2013,04,Foodstuffs,042204,Wine,133645.65625
142,Asia,307,Iraq,2014,2014,04,Foodstuffs,042204,Wine,301705.5
142,Asia,307,Iraq,2015,2015,04,Foodstuffs,042204,Wine,207694.5
142,Asia,307,Iraq,2016,2016,04,Foodstuffs,042204,Wine,160308.0
142,Asia,310,Siria,2011,2011,04,Foodstuffs,042204,Wine,33090.0
142,Asia,311,Libano,2011,2011,04,Foodstuffs,042204,Wine,16143.51953125
142,Asia,311,Libano,2012,2012,04,Foodstuffs,042204,Wine,73412.8125
142,Asia,311,Libano,2013,2013,04,Foodstuffs,042204,Wine,34941.21875
142,Asia,311,Libano,2014,2014,04,Foodstuffs,042204,Wine,63916.6015625
142,Asia,311,Libano,2016,2016,04,Foodstuffs,042204,Wine,54249.4296875
142,Asia,312,Qatar,2011,2011,04,Foodstuffs,042204,Wine,931982.5
142,Asia,312,Qatar,2012,2012,04,Foodstuffs,042204,Wine,703041.5625
142,Asia,312,Qatar,2013,2013,04,Foodstuffs,042204,Wine,980980.0
142,Asia,312,Qatar,2014,2014,04,Foodstuffs,042204,Wine,1161423.5
142,Asia,312,Qatar,2015,2015,04,Foodstuffs,042204,Wine,1059987.25
142,Asia,312,Qatar,2016,2016,04,Foodstuffs,042204,Wine,1033819.6875
142,Asia,313,Bahrein,2011,2011,04,Foodstuffs,042204,Wine,151286.5
142,Asia,313,Bahrein,2012,2012,04,Foodstuffs,042204,Wine,347699.375
142,Asia,313,Bahrein,2013,2013,04,Foodstuffs,042204,Wine,297225.59375
142,Asia,313,Bahrein,2014,2014,04,Foodstuffs,042204,Wine,504883.5
142,Asia,313,Bahrein,2015,2015,04,Foodstuffs,042204,Wine,430116.3125
142,Asia,313,Bahrein,2016,2016,04,Foodstuffs,042204,Wine,222182.203125
142,Asia,314,Sri Lanka,2011,2011,04,Foodstuffs,042204,Wine,608400.3125
142,Asia,314,Sri Lanka,2012,2012,04,Foodstuffs,042204,Wine,510140.40625
142,Asia,314,Sri Lanka,2013,2013,04,Foodstuffs,042204,Wine,685720.0
142,Asia,314,Sri Lanka,2014,2014,04,Foodstuffs,042204,Wine,997036.5
142,Asia,314,Sri Lanka,2015,2015,04,Foodstuffs,042204,Wine,1177859.5
142,Asia,314,Sri Lanka,2016,2016,04,Foodstuffs,042204,Wine,1301165.125
142,Asia,315,Camboya,2011,2011,04,Foodstuffs,042204,Wine,431646.0
142,Asia,315,Camboya,2012,2012,04,Foodstuffs,042204,Wine,630805.5625
142,Asia,315,Camboya,2013,2013,04,Foodstuffs,042204,Wine,762403.4375
142,Asia,315,Camboya,2014,2014,04,Foodstuffs,042204,Wine,849070.875
142,Asia,315,Camboya,2015,2015,04,Foodstuffs,042204,Wine,1120511.0
142,Asia,315,Camboya,2016,2016,04,Foodstuffs,042204,Wine,1093805.375
142,Asia,316,Laos,2011,2011,04,Foodstuffs,042204,Wine,317494.0
142,Asia,316,Laos,2012,2012,04,Foodstuffs,042204,Wine,350231.125
142,Asia,316,Laos,2013,2013,04,Foodstuffs,042204,Wine,331416.0
142,Asia,316,Laos,2014,2014,04,Foodstuffs,042204,Wine,287314.0
142,Asia,316,Laos,2015,2015,04,Foodstuffs,042204,Wine,274128.1875
142,Asia,316,Laos,2016,2016,04,Foodstuffs,042204,Wine,316113.3125
142,Asia,317,India,2011,2011,04,Foodstuffs,042204,Wine,790601.8125
142,Asia,317,India,2012,2012,04,Foodstuffs,042204,Wine,1029580.625
142,Asia,317,India,2013,2013,04,Foodstuffs,042204,Wine,965392.875
142,Asia,317,India,2014,2014,04,Foodstuffs,042204,Wine,787690.5
142,Asia,317,India,2015,2015,04,Foodstuffs,042204,Wine,1184392.75
142,Asia,317,India,2016,2016,04,Foodstuffs,042204,Wine,1151397.375
142,Asia,319,Tailandia,2011,2011,04,Foodstuffs,042204,Wine,4452578.0
142,Asia,319,Tailandia,2012,2012,04,Foodstuffs,042204,Wine,5249086.0
142,Asia,319,Tailandia,2013,2013,04,Foodstuffs,042204,Wine,6479106.5
142,Asia,319,Tailandia,2014,2014,04,Foodstuffs,042204,Wine,4725953.5
142,Asia,319,Tailandia,2015,2015,04,Foodstuffs,042204,Wine,4976850.5
142,Asia,319,Tailandia,2016,2016,04,Foodstuffs,042204,Wine,4857480.0
142,Asia,320,Nepal,2011,2011,04,Foodstuffs,042204,Wine,61345.80078125
142,Asia,320,Nepal,2012,2012,04,Foodstuffs,042204,Wine,105625.5
142,Asia,320,Nepal,2013,2013,04,Foodstuffs,042204,Wine,69757.5
142,Asia,320,Nepal,2014,2014,04,Foodstuffs,042204,Wine,288311.40625
142,Asia,320,Nepal,2015,2015,04,Foodstuffs,042204,Wine,189696.5
142,Asia,320,Nepal,2016,2016,04,Foodstuffs,042204,Wine,207833.0
142,Asia,321,Bangladesh,2014,2014,04,Foodstuffs,042204,Wine,41342.5
142,Asia,325,Viet Nam,2011,2011,04,Foodstuffs,042204,Wine,9553324.0
142,Asia,325,Viet Nam,2012,2012,04,Foodstuffs,042204,Wine,7673737.0
142,Asia,325,Viet Nam,2013,2013,04,Foodstuffs,042204,Wine,9997039.0
142,Asia,325,Viet Nam,2014,2014,04,Foodstuffs,042204,Wine,11370558.0
142,Asia,325,Viet Nam,2015,2015,04,Foodstuffs,042204,Wine,13691190.0
142,Asia,325,Viet Nam,2016,2016,04,Foodstuffs,042204,Wine,13094340.0
142,Asia,326,Myanmar (ex Birmania),2013,2013,04,Foodstuffs,042204,Wine,58609.6015625
142,Asia,326,Myanmar (ex Birmania),2015,2015,04,Foodstuffs,042204,Wine,213813.84375
142,Asia,326,Myanmar (ex Birmania),2016,2016,04,Foodstuffs,042204,Wine,162604.984375
142,Asia,327,Maldivas (Isla Maldivas),2011,2011,04,Foodstuffs,042204,Wine,189928.34375
142,Asia,327,Maldivas (Isla Maldivas),2012,2012,04,Foodstuffs,042204,Wine,247144.796875
142,Asia,327,Maldivas (Isla Maldivas),2013,2013,04,Foodstuffs,042204,Wine,331271.1875
142,Asia,327,Maldivas (Isla Maldivas),2014,2014,04,Foodstuffs,042204,Wine,309231.53125
142,Asia,327,Maldivas (Isla Maldivas),2015,2015,04,Foodstuffs,042204,Wine,248227.53125
142,Asia,327,Maldivas (Isla Maldivas),2016,2016,04,Foodstuffs,042204,Wine,277527.125
142,Asia,328,Indonesia,2011,2011,04,Foodstuffs,042204,Wine,1243970.625
142,Asia,328,Indonesia,2012,2012,04,Foodstuffs,042204,Wine,815560.375
142,Asia,328,Indonesia,2013,2013,04,Foodstuffs,042204,Wine,904677.375
142,Asia,328,Indonesia,2014,2014,04,Foodstuffs,042204,Wine,1088576.375
142,Asia,328,Indonesia,2015,2015,04,Foodstuffs,042204,Wine,2582594.0
142,Asia,328,Indonesia,2016,2016,04,Foodstuffs,042204,Wine,1472652.75
142,Asia,329,Malasia,2011,2011,04,Foodstuffs,042204,Wine,3184797.25
142,Asia,329,Malasia,2012,2012,04,Foodstuffs,042204,Wine,3331233.5
142,Asia,329,Malasia,2013,2013,04,Foodstuffs,042204,Wine,3671361.5
142,Asia,329,Malasia,2014,2014,04,Foodstuffs,042204,Wine,4099742.5
142,Asia,329,Malasia,2015,2015,04,Foodstuffs,042204,Wine,5329600.0
142,Asia,329,Malasia,2016,2016,04,Foodstuffs,042204,Wine,5842172.0
142,Asia,330,Taiwán,2011,2011,04,Foodstuffs,042204,Wine,8697265.0
142,Asia,330,Taiwán,2012,2012,04,Foodstuffs,042204,Wine,8417902.0
142,Asia,330,Taiwán,2013,2013,04,Foodstuffs,042204,Wine,8819053.0
142,Asia,330,Taiwán,2014,2014,04,Foodstuffs,042204,Wine,9562851.0
142,Asia,330,Taiwán,2015,2015,04,Foodstuffs,042204,Wine,11493855.0
142,Asia,330,Taiwán,2016,2016,04,Foodstuffs,042204,Wine,11746666.0
142,Asia,331,Japón,2011,2011,04,Foodstuffs,042204,Wine,100303808.0
142,Asia,331,Japón,2012,2012,04,Foodstuffs,042204,Wine,126727824.0
142,Asia,331,Japón,2013,2013,04,Foodstuffs,042204,Wine,156344784.0
142,Asia,331,Japón,2014,2014,04,Foodstuffs,042204,Wine,172632352.0
142,Asia,331,Japón,2015,2015,04,Foodstuffs,042204,Wine,195843184.0
142,Asia,331,Japón,2016,2016,04,Foodstuffs,042204,Wine,183834160.0
142,Asia,332,Singapur,2011,2011,04,Foodstuffs,042204,Wine,7430835.0
142,Asia,332,Singapur,2012,2012,04,Foodstuffs,042204,Wine,7834674.0
142,Asia,332,Singapur,2013,2013,04,Foodstuffs,042204,Wine,7748427.0
142,Asia,332,Singapur,2014,2014,04,Foodstuffs,042204,Wine,6973658.0
142,Asia,332,Singapur,2015,2015,04,Foodstuffs,042204,Wine,8026918.0
142,Asia,332,Singapur,2016,2016,04,Foodstuffs,042204,Wine,8322331.0
142,Asia,333,Corea del Sur,2011,2011,04,Foodstuffs,042204,Wine,27883432.0
142,Asia,333,Corea del Sur,2012,2012,04,Foodstuffs,042204,Wine,29621028.0
142,Asia,333,Corea del Sur,2013,2013,04,Foodstuffs,042204,Wine,34803816.0
142,Asia,333,Corea del Sur,2014,2014,04,Foodstuffs,042204,Wine,39012880.0
142,Asia,333,Corea del Sur,2015,2015,04,Foodstuffs,042204,Wine,39549324.0
142,Asia,333,Corea del Sur,2016,2016,04,Foodstuffs,042204,Wine,39197304.0
142,Asia,334,Corea del Norte,2011,2011,04,Foodstuffs,042204,Wine,350335.0
142,Asia,334,Corea del Norte,2012,2012,04,Foodstuffs,042204,Wine,74743.21875
142,Asia,334,Corea del Norte,2013,2013,04,Foodstuffs,042204,Wine,46566.3984375
142,Asia,334,Corea del Norte,2014,2014,04,Foodstuffs,042204,Wine,15609.599609375
142,Asia,334,Corea del Norte,2015,2015,04,Foodstuffs,042204,Wine,65750.0
142,Asia,334,Corea del Norte,2016,2016,04,Foodstuffs,042204,Wine,189070.0
142,Asia,335,Filipinas,2011,2011,04,Foodstuffs,042204,Wine,2434623.75
142,Asia,335,Filipinas,2012,2012,04,Foodstuffs,042204,Wine,2772188.5
142,Asia,335,Filipinas,2013,2013,04,Foodstuffs,042204,Wine,2980498.75
142,Asia,335,Filipinas,2014,2014,04,Foodstuffs,042204,Wine,3589606.75
142,Asia,335,Filipinas,2015,2015,04,Foodstuffs,042204,Wine,3464479.0
142,Asia,335,Filipinas,2016,2016,04,Foodstuffs,042204,Wine,3452152.75
142,Asia,336,China,2011,2011,04,Foodstuffs,042204,Wine,91601552.0
142,Asia,336,China,2012,2012,04,Foodstuffs,042204,Wine,144303488.0
142,Asia,336,China,2013,2013,04,Foodstuffs,042204,Wine,149458480.0
142,Asia,336,China,2014,2014,04,Foodstuffs,042204,Wine,148684640.0
142,Asia,336,China,2015,2015,04,Foodstuffs,042204,Wine,222403968.0
142,Asia,336,China,2016,2016,04,Foodstuffs,042204,Wine,251432096.0
142,Asia,337,Mongolia,2011,2011,04,Foodstuffs,042204,Wine,185934.84375
142,Asia,337,Mongolia,2012,2012,04,Foodstuffs,042204,Wine,126935.6171875
142,Asia,337,Mongolia,2013,2013,04,Foodstuffs,042204,Wine,144922.5625
142,Asia,337,Mongolia,2014,2014,04,Foodstuffs,042204,Wine,139948.796875
142,Asia,337,Mongolia,2015,2015,04,Foodstuffs,042204,Wine,154354.75
142,Asia,337,Mongolia,2016,2016,04,Foodstuffs,042204,Wine,92770.0
142,Asia,341,Emiratos Arabes Unidos,2011,2011,04,Foodstuffs,042204,Wine,4121187.5
142,Asia,341,Emiratos Arabes Unidos,2012,2012,04,Foodstuffs,042204,Wine,5234092.5
142,Asia,341,Emiratos Arabes Unidos,2013,2013,04,Foodstuffs,042204,Wine,6518864.5
142,Asia,341,Emiratos Arabes Unidos,2014,2014,04,Foodstuffs,042204,Wine,6003005.5
142,Asia,341,Emiratos Arabes Unidos,2015,2015,04,Foodstuffs,042204,Wine,6868407.5
142,Asia,341,Emiratos Arabes Unidos,2016,2016,04,Foodstuffs,042204,Wine,5062578.0
142,Asia,342,Hong Kong (Región administrativa especial de China),2011,2011,04,Foodstuffs,042204,Wine,13554531.0
142,Asia,342,Hong Kong (Región administrativa especial de China),2012,2012,04,Foodstuffs,042204,Wine,14367114.0
142,Asia,342,Hong Kong (Región administrativa especial de China),2013,2013,04,Foodstuffs,042204,Wine,13927273.0
142,Asia,342,Hong Kong (Región administrativa especial de China),2014,2014,04,Foodstuffs,042204,Wine,15375994.0
142,Asia,342,Hong Kong (Región administrativa especial de China),2015,2015,04,Foodstuffs,042204,Wine,16376656.0
142,Asia,342,Hong Kong (Región administrativa especial de China),2016,2016,04,Foodstuffs,042204,Wine,13725755.0
142,Asia,345,Macao,2011,2011,04,Foodstuffs,042204,Wine,145098.75
142,Asia,345,Macao,2012,2012,04,Foodstuffs,042204,Wine,47700.0
142,Asia,345,Macao,2013,2013,04,Foodstuffs,042204,Wine,186280.8125
142,Asia,345,Macao,2014,2014,04,Foodstuffs,042204,Wine,41600.0
142,Asia,345,Macao,2015,2015,04,Foodstuffs,042204,Wine,33946.8984375
142,Asia,345,Macao,2016,2016,04,Foodstuffs,042204,Wine,46267.0
142,Asia,522,Turquia,2011,2011,04,Foodstuffs,042204,Wine,1315166.5
142,Asia,522,Turquia,2012,2012,04,Foodstuffs,042204,Wine,1575778.125
142,Asia,522,Turquia,2013,2013,04,Foodstuffs,042204,Wine,1692810.375
142,Asia,522,Turquia,2014,2014,04,Foodstuffs,042204,Wine,1511390.5
142,Asia,522,Turquia,2015,2015,04,Foodstuffs,042204,Wine,1568743.625
142,Asia,522,Turquia,2016,2016,04,Foodstuffs,042204,Wine,1183049.25
142,Asia,540,Armenia,2011,2011,04,Foodstuffs,042204,Wine,127920.7578125
142,Asia,540,Armenia,2012,2012,04,Foodstuffs,042204,Wine,100946.546875
142,Asia,540,Armenia,2013,2013,04,Foodstuffs,042204,Wine,26641.87109375
142,Asia,540,Armenia,2014,2014,04,Foodstuffs,042204,Wine,62250.76171875
142,Asia,540,Armenia,2015,2015,04,Foodstuffs,042204,Wine,62921.5703125
142,Asia,540,Armenia,2016,2016,04,Foodstuffs,042204,Wine,31187.5
142,Asia,541,Azerbaiyan,2016,2016,04,Foodstuffs,042204,Wine,21645.0
142,Asia,550,Georgia,2013,2013,04,Foodstuffs,042204,Wine,32184.0
142,Asia,551,Kasajstan,2011,2011,04,Foodstuffs,042204,Wine,391824.0
142,Asia,551,Kasajstan,2012,2012,04,Foodstuffs,042204,Wine,867762.5625
142,Asia,551,Kasajstan,2013,2013,04,Foodstuffs,042204,Wine,492502.03125
142,Asia,551,Kasajstan,2014,2014,04,Foodstuffs,042204,Wine,474823.4375
142,Asia,551,Kasajstan,2015,2015,04,Foodstuffs,042204,Wine,842040.375
142,Asia,551,Kasajstan,2016,2016,04,Foodstuffs,042204,Wine,253563.84375
142,Asia,552,Kirguistán,2011,2011,04,Foodstuffs,042204,Wine,51313.5
142,Asia,552,Kirguistán,2012,2012,04,Foodstuffs,042204,Wine,60785.80078125
142,Asia,552,Kirguistán,2013,2013,04,Foodstuffs,042204,Wine,24837.0
142,Asia,552,Kirguistán,2014,2014,04,Foodstuffs,042204,Wine,26439.0
142,Asia,552,Kirguistán,2015,2015,04,Foodstuffs,042204,Wine,27182.5
142,Asia,552,Kirguistán,2016,2016,04,Foodstuffs,042204,Wine,43320.0
150,Europa,501,Portugal,2011,2011,04,Foodstuffs,042204,Wine,294600.0
150,Europa,501,Portugal,2012,2012,04,Foodstuffs,042204,Wine,265051.46875
150,Europa,501,Portugal,2013,2013,04,Foodstuffs,042204,Wine,971952.375
150,Europa,501,Portugal,2014,2014,04,Foodstuffs,042204,Wine,175816.65625
150,Europa,501,Portugal,2015,2015,04,Foodstuffs,042204,Wine,323626.5
150,Europa,501,Portugal,2016,2016,04,Foodstuffs,042204,Wine,263826.4375
150,Europa,504,Italia,2011,2011,04,Foodstuffs,042204,Wine,2546079.25
150,Europa,504,Italia,2012,2012,04,Foodstuffs,042204,Wine,1535923.5
150,Europa,504,Italia,2013,2013,04,Foodstuffs,042204,Wine,3367162.25
150,Europa,504,Italia,2014,2014,04,Foodstuffs,042204,Wine,1345629.25
150,Europa,504,Italia,2015,2015,04,Foodstuffs,042204,Wine,1521160.5
150,Europa,504,Italia,2016,2016,04,Foodstuffs,042204,Wine,1257305.625
150,Europa,505,Francia,2011,2011,04,Foodstuffs,042204,Wine,24023082.0
150,Europa,505,Francia,2012,2012,04,Foodstuffs,042204,Wine,25248692.0
150,Europa,505,Francia,2013,2013,04,Foodstuffs,042204,Wine,24428734.0
150,Europa,505,Francia,2014,2014,04,Foodstuffs,042204,Wine,22941556.0
150,Europa,505,Francia,2015,2015,04,Foodstuffs,042204,Wine,25345532.0
150,Europa,505,Francia,2016,2016,04,Foodstuffs,042204,Wine,28548258.0
150,Europa,506,Irlanda,2011,2011,04,Foodstuffs,042204,Wine,46111752.0
150,Europa,506,Irlanda,2012,2012,04,Foodstuffs,042204,Wine,43710688.0
150,Europa,506,Irlanda,2013,2013,04,Foodstuffs,042204,Wine,41839224.0
150,Europa,506,Irlanda,2014,2014,04,Foodstuffs,042204,Wine,43348444.0
150,Europa,506,Irlanda,2015,2015,04,Foodstuffs,042204,Wine,39489220.0
150,Europa,506,Irlanda,2016,2016,04,Foodstuffs,042204,Wine,43061592.0
150,Europa,507,Dinamarca,2011,2011,04,Foodstuffs,042204,Wine,61436952.0
150,Europa,507,Dinamarca,2012,2012,04,Foodstuffs,042204,Wine,52860288.0
150,Europa,507,Dinamarca,2013,2013,04,Foodstuffs,042204,Wine,59034828.0
150,Europa,507,Dinamarca,2014,2014,04,Foodstuffs,042204,Wine,59744520.0
150,Europa,507,Dinamarca,2015,2015,04,Foodstuffs,042204,Wine,55562016.0
150,Europa,507,Dinamarca,2016,2016,04,Foodstuffs,042204,Wine,51806720.0
150,Europa,508,Suiza,2011,2011,04,Foodstuffs,042204,Wine,13228700.0
150,Europa,508,Suiza,2012,2012,04,Foodstuffs,042204,Wine,12023317.0
150,Europa,508,Suiza,2013,2013,04,Foodstuffs,042204,Wine,12379638.0
150,Europa,508,Suiza,2014,2014,04,Foodstuffs,042204,Wine,10433962.0
150,Europa,508,Suiza,2015,2015,04,Foodstuffs,042204,Wine,13118452.0
150,Europa,508,Suiza,2016,2016,04,Foodstuffs,042204,Wine,12233178.0
150,Europa,509,Austria,2011,2011,04,Foodstuffs,042204,Wine,789469.75
150,Europa,509,Austria,2012,2012,04,Foodstuffs,042204,Wine,720337.5625
150,Europa,509,Austria,2013,2013,04,Foodstuffs,042204,Wine,576530.6875
150,Europa,509,Austria,2014,2014,04,Foodstuffs,042204,Wine,456105.125
150,Europa,509,Austria,2015,2015,04,Foodstuffs,042204,Wine,666407.5
150,Europa,509,Austria,2016,2016,04,Foodstuffs,042204,Wine,351225.3125
150,Europa,510,Reino Unido,2011,2011,04,Foodstuffs,042204,Wine,235102912.0
150,Europa,510,Reino Unido,2012,2012,04,Foodstuffs,042204,Wine,228017712.0
150,Europa,510,Reino Unido,2013,2013,04,Foodstuffs,042204,Wine,237859760.0
150,Europa,510,Reino Unido,2014,2014,04,Foodstuffs,042204,Wine,228715248.0
150,Europa,510,Reino Unido,2015,2015,04,Foodstuffs,042204,Wine,209525904.0
150,Europa,510,Reino Unido,2016,2016,04,Foodstuffs,042204,Wine,191344048.0
150,Europa,511,Suecia,2011,2011,04,Foodstuffs,042204,Wine,40255248.0
150,Europa,511,Suecia,2012,2012,04,Foodstuffs,042204,Wine,34389240.0
150,Europa,511,Suecia,2013,2013,04,Foodstuffs,042204,Wine,39148052.0
150,Europa,511,Suecia,2014,2014,04,Foodstuffs,042204,Wine,38084024.0
150,Europa,511,Suecia,2015,2015,04,Foodstuffs,042204,Wine,32609960.0
150,Europa,511,Suecia,2016,2016,04,Foodstuffs,042204,Wine,29367646.0
150,Europa,512,Finlandia,2011,2011,04,Foodstuffs,042204,Wine,37380124.0
150,Europa,512,Finlandia,2012,2012,04,Foodstuffs,042204,Wine,33686832.0
150,Europa,512,Finlandia,2013,2013,04,Foodstuffs,042204,Wine,33563728.0
150,Europa,512,Finlandia,2014,2014,04,Foodstuffs,042204,Wine,36330444.0
150,Europa,512,Finlandia,2015,2015,04,Foodstuffs,042204,Wine,28186246.0
150,Europa,512,Finlandia,2016,2016,04,Foodstuffs,042204,Wine,26347128.0
150,Europa,513,Noruega,2011,2011,04,Foodstuffs,042204,Wine,11781007.0
150,Europa,513,Noruega,2012,2012,04,Foodstuffs,042204,Wine,12022502.0
150,Europa,513,Noruega,2013,2013,04,Foodstuffs,042204,Wine,12045538.0
150,Europa,513,Noruega,2014,2014,04,Foodstuffs,042204,Wine,12140415.0
150,Europa,513,Noruega,2015,2015,04,Foodstuffs,042204,Wine,11002709.0
150,Europa,513,Noruega,2016,2016,04,Foodstuffs,042204,Wine,11413343.0
150,Europa,514,Bélgica,2011,2011,04,Foodstuffs,042204,Wine,35084072.0
150,Europa,514,Bélgica,2012,2012,04,Foodstuffs,042204,Wine,33252298.0
150,Europa,514,Bélgica,2013,2013,04,Foodstuffs,042204,Wine,34920252.0
150,Europa,514,Bélgica,2014,2014,04,Foodstuffs,042204,Wine,34663708.0
150,Europa,514,Bélgica,2015,2015,04,Foodstuffs,042204,Wine,33713584.0
150,Europa,514,Bélgica,2016,2016,04,Foodstuffs,042204,Wine,28814714.0
150,Europa,515,Holanda,2011,2011,04,Foodstuffs,042204,Wine,97347144.0
150,Europa,515,Holanda,2012,2012,04,Foodstuffs,042204,Wine,95315368.0
150,Europa,515,Holanda,2013,2013,04,Foodstuffs,042204,Wine,97555528.0
150,Europa,515,Holanda,2014,2014,04,Foodstuffs,042204,Wine,105860848.0
150,Europa,515,Holanda,2015,2015,04,Foodstuffs,042204,Wine,90531568.0
150,Europa,515,Holanda,2016,2016,04,Foodstuffs,042204,Wine,103964944.0
150,Europa,516,Islandia ,2011,2011,04,Foodstuffs,042204,Wine,2500890.25
150,Europa,516,Islandia ,2012,2012,04,Foodstuffs,042204,Wine,2442608.5
150,Europa,516,Islandia ,2013,2013,04,Foodstuffs,042204,Wine,2426092.0
150,Europa,516,Islandia ,2014,2014,04,Foodstuffs,042204,Wine,2359136.25
150,Europa,516,Islandia ,2015,2015,04,Foodstuffs,042204,Wine,2450097.25
150,Europa,516,Islandia ,2016,2016,04,Foodstuffs,042204,Wine,2597795.25
150,Europa,517,España,2011,2011,04,Foodstuffs,042204,Wine,3456219.25
150,Europa,517,España,2012,2012,04,Foodstuffs,042204,Wine,27045460.0
150,Europa,517,España,2013,2013,04,Foodstuffs,042204,Wine,48969564.0
150,Europa,517,España,2014,2014,04,Foodstuffs,042204,Wine,10275458.0
150,Europa,517,España,2015,2015,04,Foodstuffs,042204,Wine,5764632.5
150,Europa,517,España,2016,2016,04,Foodstuffs,042204,Wine,4030491.0
150,Europa,519,Rumania,2011,2011,04,Foodstuffs,042204,Wine,512917.65625
150,Europa,519,Rumania,2012,2012,04,Foodstuffs,042204,Wine,556449.5625
150,Europa,519,Rumania,2013,2013,04,Foodstuffs,042204,Wine,2171885.75
150,Europa,519,Rumania,2014,2014,04,Foodstuffs,042204,Wine,318980.34375
150,Europa,519,Rumania,2015,2015,04,Foodstuffs,042204,Wine,269103.28125
150,Europa,519,Rumania,2016,2016,04,Foodstuffs,042204,Wine,326317.625
150,Europa,520,Grecia,2011,2011,04,Foodstuffs,042204,Wine,326512.96875
150,Europa,520,Grecia,2012,2012,04,Foodstuffs,042204,Wine,288915.65625
150,Europa,520,Grecia,2013,2013,04,Foodstuffs,042204,Wine,268269.75
150,Europa,520,Grecia,2014,2014,04,Foodstuffs,042204,Wine,263604.375
150,Europa,520,Grecia,2015,2015,04,Foodstuffs,042204,Wine,162791.8125
150,Europa,520,Grecia,2016,2016,04,Foodstuffs,042204,Wine,176166.5
150,Europa,523,Malta,2011,2011,04,Foodstuffs,042204,Wine,1280827.625
150,Europa,523,Malta,2012,2012,04,Foodstuffs,042204,Wine,1377927.625
150,Europa,523,Malta,2013,2013,04,Foodstuffs,042204,Wine,1286675.0
150,Europa,523,Malta,2014,2014,04,Foodstuffs,042204,Wine,1338126.25
150,Europa,523,Malta,2015,2015,04,Foodstuffs,042204,Wine,1043357.1875
150,Europa,523,Malta,2016,2016,04,Foodstuffs,042204,Wine,1421749.875
150,Europa,527,Bulgaria,2011,2011,04,Foodstuffs,042204,Wine,1059879.25
150,Europa,527,Bulgaria,2012,2012,04,Foodstuffs,042204,Wine,1119042.0
150,Europa,527,Bulgaria,2013,2013,04,Foodstuffs,042204,Wine,1125109.625
150,Europa,527,Bulgaria,2014,2014,04,Foodstuffs,042204,Wine,1271935.375
150,Europa,527,Bulgaria,2015,2015,04,Foodstuffs,042204,Wine,1028551.5625
150,Europa,527,Bulgaria,2016,2016,04,Foodstuffs,042204,Wine,960373.6875
150,Europa,528,Polonia,2011,2011,04,Foodstuffs,042204,Wine,14392302.0
150,Europa,528,Polonia,2012,2012,04,Foodstuffs,042204,Wine,13022991.0
150,Europa,528,Polonia,2013,2013,04,Foodstuffs,042204,Wine,13958654.0
150,Europa,528,Polonia,2014,2014,04,Foodstuffs,042204,Wine,14836330.0
150,Europa,528,Polonia,2015,2015,04,Foodstuffs,042204,Wine,14083449.0
150,Europa,528,Polonia,2016,2016,04,Foodstuffs,042204,Wine,15410129.0
150,Europa,530,Hungria,2011,2011,04,Foodstuffs,042204,Wine,90610.1171875
150,Europa,530,Hungria,2012,2012,04,Foodstuffs,042204,Wine,76271.734375
150,Europa,530,Hungria,2013,2013,04,Foodstuffs,042204,Wine,177617.25
150,Europa,530,Hungria,2014,2014,04,Foodstuffs,042204,Wine,160347.5625
150,Europa,530,Hungria,2015,2015,04,Foodstuffs,042204,Wine,121948.1328125
150,Europa,530,Hungria,2016,2016,04,Foodstuffs,042204,Wine,173686.765625
150,Europa,532,Luxemburgo,2011,2011,04,Foodstuffs,042204,Wine,55719.51953125
150,Europa,532,Luxemburgo,2012,2012,04,Foodstuffs,042204,Wine,91648.5625
150,Europa,532,Luxemburgo,2013,2013,04,Foodstuffs,042204,Wine,113311.2265625
150,Europa,532,Luxemburgo,2014,2014,04,Foodstuffs,042204,Wine,175593.265625
150,Europa,532,Luxemburgo,2015,2015,04,Foodstuffs,042204,Wine,90129.4609375
150,Europa,532,Luxemburgo,2016,2016,04,Foodstuffs,042204,Wine,96216.1015625
150,Europa,534,Liechtenstein,2015,2015,04,Foodstuffs,042204,Wine,28450.0
150,Europa,542,Belarús,2011,2011,04,Foodstuffs,042204,Wine,428203.375
150,Europa,542,Belarús,2012,2012,04,Foodstuffs,042204,Wine,374723.71875
150,Europa,542,Belarús,2013,2013,04,Foodstuffs,042204,Wine,420721.625
150,Europa,542,Belarús,2014,2014,04,Foodstuffs,042204,Wine,895446.1875
150,Europa,542,Belarús,2015,2015,04,Foodstuffs,042204,Wine,548637.4375
150,Europa,542,Belarús,2016,2016,04,Foodstuffs,042204,Wine,803063.9375
150,Europa,544,República Checa,2011,2011,04,Foodstuffs,042204,Wine,5031110.5
150,Europa,544,República Checa,2012,2012,04,Foodstuffs,042204,Wine,3997137.0
150,Europa,544,República Checa,2013,2013,04,Foodstuffs,042204,Wine,6448327.0
150,Europa,544,República Checa,2014,2014,04,Foodstuffs,042204,Wine,6480973.5
150,Europa,544,República Checa,2015,2015,04,Foodstuffs,042204,Wine,5180244.0
150,Europa,544,República Checa,2016,2016,04,Foodstuffs,042204,Wine,5654038.0
150,Europa,545,República Eslovaca,2011,2011,04,Foodstuffs,042204,Wine,545952.4375
150,Europa,545,República Eslovaca,2012,2012,04,Foodstuffs,042204,Wine,557819.25
150,Europa,545,República Eslovaca,2013,2013,04,Foodstuffs,042204,Wine,514572.25
150,Europa,545,República Eslovaca,2014,2014,04,Foodstuffs,042204,Wine,598089.625
150,Europa,545,República Eslovaca,2015,2015,04,Foodstuffs,042204,Wine,547318.9375
150,Europa,545,República Eslovaca,2016,2016,04,Foodstuffs,042204,Wine,651277.9375
150,Europa,546,Serbia,2014,2014,04,Foodstuffs,042204,Wine,32684.849609375
150,Europa,546,Serbia,2015,2015,04,Foodstuffs,042204,Wine,11182.41015625
150,Europa,546,Serbia,2016,2016,04,Foodstuffs,042204,Wine,45651.37890625
150,Europa,547,Croacia,2011,2011,04,Foodstuffs,042204,Wine,368300.375
150,Europa,547,Croacia,2012,2012,04,Foodstuffs,042204,Wine,149645.125
150,Europa,547,Croacia,2013,2013,04,Foodstuffs,042204,Wine,161994.65625
150,Europa,547,Croacia,2014,2014,04,Foodstuffs,042204,Wine,331559.9375
150,Europa,547,Croacia,2015,2015,04,Foodstuffs,042204,Wine,157063.671875
150,Europa,547,Croacia,2016,2016,04,Foodstuffs,042204,Wine,183664.359375
150,Europa,548,Eslovenia,2011,2011,04,Foodstuffs,042204,Wine,239455.0625
150,Europa,548,Eslovenia,2012,2012,04,Foodstuffs,042204,Wine,230723.578125
150,Europa,548,Eslovenia,2013,2013,04,Foodstuffs,042204,Wine,260259.15625
150,Europa,548,Eslovenia,2014,2014,04,Foodstuffs,042204,Wine,205133.40625
150,Europa,548,Eslovenia,2015,2015,04,Foodstuffs,042204,Wine,249376.9375
150,Europa,548,Eslovenia,2016,2016,04,Foodstuffs,042204,Wine,253999.96875
150,Europa,549,Estonia,2011,2011,04,Foodstuffs,042204,Wine,6033522.5
150,Europa,549,Estonia,2012,2012,04,Foodstuffs,042204,Wine,5909008.0
150,Europa,549,Estonia,2013,2013,04,Foodstuffs,042204,Wine,6128749.0
150,Europa,549,Estonia,2014,2014,04,Foodstuffs,042204,Wine,5986895.5
150,Europa,549,Estonia,2015,2015,04,Foodstuffs,042204,Wine,4509708.5
150,Europa,549,Estonia,2016,2016,04,Foodstuffs,042204,Wine,4270958.0
150,Europa,553,Letonia,2011,2011,04,Foodstuffs,042204,Wine,5918753.0
150,Europa,553,Letonia,2012,2012,04,Foodstuffs,042204,Wine,4821008.5
150,Europa,553,Letonia,2013,2013,04,Foodstuffs,042204,Wine,4872015.5
150,Europa,553,Letonia,2014,2014,04,Foodstuffs,042204,Wine,4741945.5
150,Europa,553,Letonia,2015,2015,04,Foodstuffs,042204,Wine,4680354.0
150,Europa,553,Letonia,2016,2016,04,Foodstuffs,042204,Wine,4820381.0
150,Europa,554,Lituania,2011,2011,04,Foodstuffs,042204,Wine,4117731.5
150,Europa,554,Lituania,2012,2012,04,Foodstuffs,042204,Wine,4340362.5
150,Europa,554,Lituania,2013,2013,04,Foodstuffs,042204,Wine,5156322.0
150,Europa,554,Lituania,2014,2014,04,Foodstuffs,042204,Wine,5033453.0
150,Europa,554,Lituania,2015,2015,04,Foodstuffs,042204,Wine,4203023.0
150,Europa,554,Lituania,2016,2016,04,Foodstuffs,042204,Wine,4130293.5
150,Europa,559,Ucrania,2011,2011,04,Foodstuffs,042204,Wine,6512094.0
150,Europa,559,Ucrania,2012,2012,04,Foodstuffs,042204,Wine,6425424.0
150,Europa,559,Ucrania,2013,2013,04,Foodstuffs,042204,Wine,7022608.0
150,Europa,559,Ucrania,2014,2014,04,Foodstuffs,042204,Wine,4849636.0
150,Europa,559,Ucrania,2015,2015,04,Foodstuffs,042204,Wine,2413061.0
150,Europa,559,Ucrania,2016,2016,04,Foodstuffs,042204,Wine,2817567.75
150,Europa,562,Rusia,2011,2011,04,Foodstuffs,042204,Wine,35034980.0
150,Europa,562,Rusia,2012,2012,04,Foodstuffs,042204,Wine,40258308.0
150,Europa,562,Rusia,2013,2013,04,Foodstuffs,042204,Wine,46179184.0
150,Europa,562,Rusia,2014,2014,04,Foodstuffs,042204,Wine,40301252.0
150,Europa,562,Rusia,2015,2015,04,Foodstuffs,042204,Wine,22475566.0
150,Europa,562,Rusia,2016,2016,04,Foodstuffs,042204,Wine,23855098.0
150,Europa,563,Alemania,2011,2011,04,Foodstuffs,042204,Wine,71647520.0
150,Europa,563,Alemania,2012,2012,04,Foodstuffs,042204,Wine,63318920.0
150,Europa,563,Alemania,2013,2013,04,Foodstuffs,042204,Wine,78022856.0
150,Europa,563,Alemania,2014,2014,04,Foodstuffs,042204,Wine,70267624.0
150,Europa,563,Alemania,2015,2015,04,Foodstuffs,042204,Wine,62605548.0
150,Europa,563,Alemania,2016,2016,04,Foodstuffs,042204,Wine,54733240.0
150,Europa,565,Gibraltar,2011,2011,04,Foodstuffs,042204,Wine,12582.0
