<?xml version="1.0" encoding="UTF-8" standalone="no"?>
<!-- Created with Inkscape (http://www.inkscape.org/) -->

<svg
   xmlns:dc="http://purl.org/dc/elements/1.1/"
   xmlns:cc="http://creativecommons.org/ns#"
   xmlns:rdf="http://www.w3.org/1999/02/22-rdf-syntax-ns#"
   xmlns:svg="http://www.w3.org/2000/svg"
   xmlns="http://www.w3.org/2000/svg"
   xmlns:sodipodi="http://sodipodi.sourceforge.net/DTD/sodipodi-0.dtd"
   xmlns:inkscape="http://www.inkscape.org/namespaces/inkscape"
   width="89.074158mm"
   height="77.14048mm"
   viewBox="0 0 89.074158 77.14048"
   version="1.1"
   id="svg8"
   inkscape:version="0.92.1 r15371"
   sodipodi:docname="trifuerza.svg"
   inkscape:export-filename="/home/david/Proyectos/Presentaciones_CursoProgramacionOOCC/5_busqueda_grep/img/trifuerza.png"
   inkscape:export-xdpi="96"
   inkscape:export-ydpi="96">
  <defs
     id="defs2" />
  <sodipodi:namedview
     id="base"
     pagecolor="#ffffff"
     bordercolor="#666666"
     borderopacity="1.0"
     inkscape:pageopacity="0.0"
     inkscape:pageshadow="2"
     inkscape:zoom="0.7"
     inkscape:cx="162.92529"
     inkscape:cy="115.03002"
     inkscape:document-units="mm"
     inkscape:current-layer="layer1"
     showgrid="false"
     showguides="true"
     inkscape:guide-bbox="true"
     inkscape:window-width="1366"
     inkscape:window-height="709"
     inkscape:window-x="0"
     inkscape:window-y="0"
     inkscape:window-maximized="1"
     fit-margin-top="0"
     fit-margin-left="0"
     fit-margin-right="0"
     fit-margin-bottom="0">
    <sodipodi:guide
       position="66.805618,38.570234"
       orientation="1,0"
       id="guide821"
       inkscape:locked="false" />
  </sodipodi:namedview>
  <metadata
     id="metadata5">
    <rdf:RDF>
      <cc:Work
         rdf:about="">
        <dc:format>image/svg+xml</dc:format>
        <dc:type
           rdf:resource="http://purl.org/dc/dcmitype/StillImage" />
        <dc:title></dc:title>
      </cc:Work>
    </rdf:RDF>
  </metadata>
  <g
     inkscape:label="Capa 1"
     inkscape:groupmode="layer"
     id="layer1"
     transform="translate(-65.284393,-69.877005)">
    <path
       sodipodi:type="star"
       style="opacity:0.509434;fill:#f8ff35;fill-opacity:1;stroke:none;stroke-width:1.05833328;stroke-miterlimit:4;stroke-dasharray:none;stroke-dashoffset:0;stroke-opacity:1"
       id="path10"
       sodipodi:sides="3"
       sodipodi:cx="109.82147"
       sodipodi:cy="95.5905"
       sodipodi:r1="25.713495"
       sodipodi:r2="12.856747"
       sodipodi:arg1="0.52359878"
       sodipodi:arg2="1.5707963"
       inkscape:flatsided="false"
       inkscape:rounded="0"
       inkscape:randomized="0"
       d="m 132.09001,108.44725 -22.26854,0 -22.268538,0 11.134271,-19.285123 11.134267,-19.285122 11.13427,19.285121 z"
       inkscape:transform-center-y="-6.4283745" />
    <path
       inkscape:transform-center-y="-6.4283745"
       d="m 109.82147,147.01748 -22.268537,0 -22.26854,0 11.13427,-19.28512 11.13427,-19.28512 11.134269,19.28512 z"
       inkscape:randomized="0"
       inkscape:rounded="0"
       inkscape:flatsided="false"
       sodipodi:arg2="1.5707963"
       sodipodi:arg1="0.52359878"
       sodipodi:r2="12.856747"
       sodipodi:r1="25.713495"
       sodipodi:cy="134.16074"
       sodipodi:cx="87.552933"
       sodipodi:sides="3"
       id="path817"
       style="opacity:0.509434;fill:#f8ff35;fill-opacity:1;stroke:none;stroke-width:1.05833328;stroke-miterlimit:4;stroke-dasharray:none;stroke-dashoffset:0;stroke-opacity:1"
       sodipodi:type="star" />
    <path
       sodipodi:type="star"
       style="opacity:0.509434;fill:#f8ff35;fill-opacity:1;stroke:none;stroke-width:1.05833328;stroke-miterlimit:4;stroke-dasharray:none;stroke-dashoffset:0;stroke-opacity:1"
       id="path823"
       sodipodi:sides="3"
       sodipodi:cx="132.09001"
       sodipodi:cy="134.16074"
       sodipodi:r1="25.713495"
       sodipodi:r2="12.856747"
       sodipodi:arg1="0.52359878"
       sodipodi:arg2="1.5707963"
       inkscape:flatsided="false"
       inkscape:rounded="0"
       inkscape:randomized="0"
       d="m 154.35855,147.01748 -22.26854,0 -22.26854,0 11.13427,-19.28512 11.13427,-19.28512 11.13427,19.28512 z"
       inkscape:transform-center-y="-6.4283745" />
    <text
       xml:space="preserve"
       style="font-style:normal;font-weight:normal;font-size:10.58333302px;line-height:1.25;font-family:sans-serif;letter-spacing:0px;word-spacing:0px;fill:#000000;fill-opacity:1;stroke:none;stroke-width:0.26458332"
       x="99.15699"
       y="98.686012"
       id="text827"><tspan
         sodipodi:role="line"
         id="tspan825"
         x="99.15699"
         y="98.686012"
         style="stroke-width:0.26458332">grep</tspan></text>
    <text
       id="text831"
       y="138.2419"
       x="78.176331"
       style="font-style:normal;font-weight:normal;font-size:10.58333302px;line-height:1.25;font-family:sans-serif;letter-spacing:0px;word-spacing:0px;fill:#000000;fill-opacity:1;stroke:none;stroke-width:0.26458332"
       xml:space="preserve"><tspan
         style="stroke-width:0.26458332"
         y="138.2419"
         x="78.176331"
         id="tspan829"
         sodipodi:role="line">sed</tspan></text>
    <text
       xml:space="preserve"
       style="font-style:normal;font-weight:normal;font-size:10.58333302px;line-height:1.25;font-family:sans-serif;letter-spacing:0px;word-spacing:0px;fill:#000000;fill-opacity:1;stroke:none;stroke-width:0.26458332"
       x="122.81034"
       y="138.2419"
       id="text835"><tspan
         sodipodi:role="line"
         id="tspan833"
         x="122.81034"
         y="138.2419"
         style="stroke-width:0.26458332">awk</tspan></text>
    <circle
       style="opacity:0.509434;fill:#c679ce;fill-opacity:1;stroke:none;stroke-width:1.05833328;stroke-miterlimit:4;stroke-dasharray:none;stroke-dashoffset:0;stroke-opacity:1"
       id="path837"
       cx="109.82147"
       cy="120.80256"
       r="11.158503" />
    <text
       xml:space="preserve"
       style="font-style:normal;font-weight:normal;font-size:6.33710861px;line-height:1.25;font-family:sans-serif;letter-spacing:0px;word-spacing:0px;fill:#000000;fill-opacity:1;stroke:none;stroke-width:0.1584277"
       x="101.01263"
       y="122.15353"
       id="text841"><tspan
         sodipodi:role="line"
         id="tspan839"
         x="101.01263"
         y="122.15353"
         style="stroke-width:0.1584277">regex</tspan></text>
  </g>
</svg>
