<?xml version="1.0" encoding="UTF-8" standalone="no"?>
<!-- Created with Inkscape (http://www.inkscape.org/) -->

<svg
   xmlns:dc="http://purl.org/dc/elements/1.1/"
   xmlns:cc="http://creativecommons.org/ns#"
   xmlns:rdf="http://www.w3.org/1999/02/22-rdf-syntax-ns#"
   xmlns:svg="http://www.w3.org/2000/svg"
   xmlns="http://www.w3.org/2000/svg"
   xmlns:sodipodi="http://sodipodi.sourceforge.net/DTD/sodipodi-0.dtd"
   xmlns:inkscape="http://www.inkscape.org/namespaces/inkscape"
   width="174.89427mm"
   height="155.31006mm"
   viewBox="0 0 174.89427 155.31006"
   version="1.1"
   id="svg8"
   inkscape:version="0.92.1 r15371"
   sodipodi:docname="geometria_guia.svg">
  <defs
     id="defs2" />
  <sodipodi:namedview
     id="base"
     pagecolor="#ffffff"
     bordercolor="#666666"
     borderopacity="1.0"
     inkscape:pageopacity="0.0"
     inkscape:pageshadow="2"
     inkscape:zoom="0.33475379"
     inkscape:cx="531.38597"
     inkscape:cy="393.83516"
     inkscape:document-units="mm"
     inkscape:current-layer="layer1"
     showgrid="false"
     fit-margin-top="0"
     fit-margin-left="0"
     fit-margin-right="0"
     fit-margin-bottom="0"
     inkscape:window-width="1366"
     inkscape:window-height="709"
     inkscape:window-x="0"
     inkscape:window-y="0"
     inkscape:window-maximized="1" />
  <metadata
     id="metadata5">
    <rdf:RDF>
      <cc:Work
         rdf:about="">
        <dc:format>image/svg+xml</dc:format>
        <dc:type
           rdf:resource="http://purl.org/dc/dcmitype/StillImage" />
        <dc:title></dc:title>
      </cc:Work>
    </rdf:RDF>
  </metadata>
  <g
     inkscape:label="Capa 1"
     inkscape:groupmode="layer"
     id="layer1"
     transform="translate(-26.082611,-108.09873)">
    <rect
       style="opacity:1;fill:#a9dffb;fill-opacity:1;stroke:none;stroke-width:1.05833328;stroke-miterlimit:4;stroke-dasharray:none;stroke-dashoffset:0;stroke-opacity:1"
       id="rect10"
       width="32.010471"
       height="69.948799"
       x="108.09873"
       y="-148.50415"
       ry="6.8170395"
       transform="rotate(90)" />
    <rect
       style="opacity:1;fill:#85ff5c;fill-opacity:1;stroke:none;stroke-width:1.05833328;stroke-miterlimit:4;stroke-dasharray:none;stroke-dashoffset:0;stroke-opacity:1"
       id="rect14"
       width="32.010471"
       height="69.948799"
       x="189.90326"
       y="-148.50415"
       ry="6.8170395"
       transform="rotate(90)" />
    <text
       xml:space="preserve"
       style="font-style:normal;font-variant:normal;font-weight:normal;font-stretch:normal;font-size:10.73140907px;line-height:1.25;font-family:'Accanthis ADF Std No2';-inkscape-font-specification:'Accanthis ADF Std No2, Normal';font-variant-ligatures:normal;font-variant-caps:normal;font-variant-numeric:normal;font-feature-settings:normal;text-align:start;letter-spacing:0px;word-spacing:0px;writing-mode:lr-tb;text-anchor:start;fill:#000000;fill-opacity:1;stroke:none;stroke-width:0.26828063"
       x="87.811592"
       y="120.35575"
       id="text20"><tspan
         sodipodi:role="line"
         id="tspan18"
         x="87.811592"
         y="120.35575"
         style="font-style:normal;font-variant:normal;font-weight:normal;font-stretch:normal;font-size:10.73140907px;font-family:'Accanthis ADF Std No2';-inkscape-font-specification:'Accanthis ADF Std No2, Normal';font-variant-ligatures:normal;font-variant-caps:normal;font-variant-numeric:normal;font-feature-settings:normal;text-align:start;writing-mode:lr-tb;text-anchor:start;stroke-width:0.26828063">Recopilar </tspan><tspan
         sodipodi:role="line"
         x="87.811592"
         y="133.77002"
         style="font-style:normal;font-variant:normal;font-weight:normal;font-stretch:normal;font-size:10.73140907px;font-family:'Accanthis ADF Std No2';-inkscape-font-specification:'Accanthis ADF Std No2, Normal';font-variant-ligatures:normal;font-variant-caps:normal;font-variant-numeric:normal;font-feature-settings:normal;text-align:start;writing-mode:lr-tb;text-anchor:start;stroke-width:0.26828063"
         id="tspan22">Información</tspan></text>
    <g
       id="g857">
      <rect
         style="opacity:1;fill:#fba9aa;fill-opacity:1;stroke:none;stroke-width:1.05833328;stroke-miterlimit:4;stroke-dasharray:none;stroke-dashoffset:0;stroke-opacity:1"
         id="rect12"
         width="32.010471"
         height="69.948799"
         x="148.80341"
         y="-96.03141"
         ry="6.8170395"
         transform="rotate(90)" />
      <rect
         style="opacity:1;fill:#a9bafb;fill-opacity:1;stroke:none;stroke-width:1.10386193;stroke-miterlimit:4;stroke-dasharray:none;stroke-dashoffset:0;stroke-opacity:1"
         id="rect16"
         width="32.010471"
         height="76.096527"
         x="148.01302"
         y="-200.97688"
         ry="7.416182"
         transform="rotate(90)" />
      <text
         xml:space="preserve"
         style="font-style:normal;font-variant:normal;font-weight:normal;font-stretch:normal;font-size:10.73140907px;line-height:1.25;font-family:'Accanthis ADF Std No2';-inkscape-font-specification:'Accanthis ADF Std No2, Normal';font-variant-ligatures:normal;font-variant-caps:normal;font-variant-numeric:normal;font-feature-settings:normal;text-align:start;letter-spacing:0px;word-spacing:0px;writing-mode:lr-tb;text-anchor:start;fill:#000000;fill-opacity:1;stroke:none;stroke-width:0.26828063"
         x="35.338856"
         y="163.38985"
         id="text833"><tspan
           sodipodi:role="line"
           x="35.338856"
           y="163.38985"
           style="font-style:normal;font-variant:normal;font-weight:normal;font-stretch:normal;font-size:10.73140907px;font-family:'Accanthis ADF Std No2';-inkscape-font-specification:'Accanthis ADF Std No2, Normal';font-variant-ligatures:normal;font-variant-caps:normal;font-variant-numeric:normal;font-feature-settings:normal;text-align:start;writing-mode:lr-tb;text-anchor:start;stroke-width:0.26828063"
           id="tspan831">Datos a</tspan><tspan
           id="tspan837"
           sodipodi:role="line"
           x="35.338856"
           y="176.80411"
           style="font-style:normal;font-variant:normal;font-weight:normal;font-stretch:normal;font-size:10.73140907px;font-family:'Accanthis ADF Std No2';-inkscape-font-specification:'Accanthis ADF Std No2, Normal';font-variant-ligatures:normal;font-variant-caps:normal;font-variant-numeric:normal;font-feature-settings:normal;text-align:start;writing-mode:lr-tb;text-anchor:start;stroke-width:0.26828063">CSV</tspan></text>
      <text
         id="text843"
         y="160.87486"
         x="129.97046"
         style="font-style:normal;font-variant:normal;font-weight:normal;font-stretch:normal;font-size:10.73140907px;line-height:1.25;font-family:'Accanthis ADF Std No2';-inkscape-font-specification:'Accanthis ADF Std No2, Normal';font-variant-ligatures:normal;font-variant-caps:normal;font-variant-numeric:normal;font-feature-settings:normal;text-align:start;letter-spacing:0px;word-spacing:0px;writing-mode:lr-tb;text-anchor:start;fill:#000000;fill-opacity:1;stroke:none;stroke-width:0.26828063"
         xml:space="preserve"><tspan
           style="font-style:normal;font-variant:normal;font-weight:normal;font-stretch:normal;font-size:10.73140907px;font-family:'Accanthis ADF Std No2';-inkscape-font-specification:'Accanthis ADF Std No2, Normal';font-variant-ligatures:normal;font-variant-caps:normal;font-variant-numeric:normal;font-feature-settings:normal;text-align:start;writing-mode:lr-tb;text-anchor:start;stroke-width:0.26828063"
           y="160.87486"
           x="129.97046"
           sodipodi:role="line"
           id="tspan841">Funciones  a</tspan><tspan
           id="tspan847"
           style="font-style:normal;font-variant:normal;font-weight:normal;font-stretch:normal;font-size:10.73140907px;font-family:'Accanthis ADF Std No2';-inkscape-font-specification:'Accanthis ADF Std No2, Normal';font-variant-ligatures:normal;font-variant-caps:normal;font-variant-numeric:normal;font-feature-settings:normal;text-align:start;writing-mode:lr-tb;text-anchor:start;stroke-width:0.26828063"
           y="174.28912"
           x="129.97046"
           sodipodi:role="line">biblioteca AWK</tspan></text>
    </g>
    <text
       id="text863"
       y="202.95065"
       x="87.811592"
       style="font-style:normal;font-variant:normal;font-weight:normal;font-stretch:normal;font-size:10.73140907px;line-height:1.25;font-family:'Accanthis ADF Std No2';-inkscape-font-specification:'Accanthis ADF Std No2, Normal';font-variant-ligatures:normal;font-variant-caps:normal;font-variant-numeric:normal;font-feature-settings:normal;text-align:start;letter-spacing:0px;word-spacing:0px;writing-mode:lr-tb;text-anchor:start;fill:#000000;fill-opacity:1;stroke:none;stroke-width:0.26828063"
       xml:space="preserve"><tspan
         id="tspan861"
         style="font-style:normal;font-variant:normal;font-weight:normal;font-stretch:normal;font-size:10.73140907px;font-family:'Accanthis ADF Std No2';-inkscape-font-specification:'Accanthis ADF Std No2, Normal';font-variant-ligatures:normal;font-variant-caps:normal;font-variant-numeric:normal;font-feature-settings:normal;text-align:start;writing-mode:lr-tb;text-anchor:start;stroke-width:0.26828063"
         y="202.95065"
         x="87.811592"
         sodipodi:role="line">Programar </tspan><tspan
         style="font-style:normal;font-variant:normal;font-weight:normal;font-stretch:normal;font-size:10.73140907px;font-family:'Accanthis ADF Std No2';-inkscape-font-specification:'Accanthis ADF Std No2, Normal';font-variant-ligatures:normal;font-variant-caps:normal;font-variant-numeric:normal;font-feature-settings:normal;text-align:start;writing-mode:lr-tb;text-anchor:start;stroke-width:0.26828063"
         y="216.36491"
         x="87.811592"
         sodipodi:role="line"
         id="tspan867">Script</tspan></text>
    <rect
       transform="rotate(90)"
       ry="6.8170395"
       y="-148.50415"
       x="231.39832"
       height="69.948799"
       width="32.010471"
       id="rect869"
       style="opacity:1;fill:#d3ff00;fill-opacity:1;stroke:none;stroke-width:1.05833328;stroke-miterlimit:4;stroke-dasharray:none;stroke-dashoffset:0;stroke-opacity:1" />
    <text
       xml:space="preserve"
       style="font-style:normal;font-variant:normal;font-weight:normal;font-stretch:normal;font-size:10.73140907px;line-height:1.25;font-family:'Accanthis ADF Std No2';-inkscape-font-specification:'Accanthis ADF Std No2, Normal';font-variant-ligatures:normal;font-variant-caps:normal;font-variant-numeric:normal;font-feature-settings:normal;text-align:start;letter-spacing:0px;word-spacing:0px;writing-mode:lr-tb;text-anchor:start;fill:#000000;fill-opacity:1;stroke:none;stroke-width:0.26828063"
       x="87.811592"
       y="244.44571"
       id="text875"><tspan
         id="tspan873"
         sodipodi:role="line"
         x="87.811592"
         y="244.44571"
         style="font-style:normal;font-variant:normal;font-weight:normal;font-stretch:normal;font-size:10.73140907px;font-family:'Accanthis ADF Std No2';-inkscape-font-specification:'Accanthis ADF Std No2, Normal';font-variant-ligatures:normal;font-variant-caps:normal;font-variant-numeric:normal;font-feature-settings:normal;text-align:start;writing-mode:lr-tb;text-anchor:start;stroke-width:0.26828063">Reporte</tspan><tspan
         sodipodi:role="line"
         x="87.811592"
         y="257.85999"
         style="font-style:normal;font-variant:normal;font-weight:normal;font-stretch:normal;font-size:10.73140907px;font-family:'Accanthis ADF Std No2';-inkscape-font-specification:'Accanthis ADF Std No2, Normal';font-variant-ligatures:normal;font-variant-caps:normal;font-variant-numeric:normal;font-feature-settings:normal;text-align:start;writing-mode:lr-tb;text-anchor:start;stroke-width:0.26828063"
         id="tspan879">Final</tspan></text>
    <path
       style="fill:#ff4f00;fill-opacity:1;stroke:none;stroke-width:0.26458332px;stroke-linecap:butt;stroke-linejoin:miter;stroke-opacity:1"
       d="m 77.126046,126.8197 v -5.58884 l -25.439896,6.8166 v 15.53878 l -5.032375,-1.34842 6.129869,6.12987 7.002584,-4.04295 h -6.133327 v -13.3134 z"
       id="path881"
       inkscape:connector-curvature="0" />
    <path
       inkscape:connector-curvature="0"
       id="path883"
       d="m 149.73703,126.8197 v -5.58884 l 25.4399,6.8166 v 15.53878 l 5.03237,-1.34842 -6.12987,6.12987 -7.00258,-4.04295 h 6.13333 v -13.3134 z"
       style="fill:#2a00ff;fill-opacity:1;stroke:none;stroke-width:0.26458332px;stroke-linecap:butt;stroke-linejoin:miter;stroke-opacity:1" />
    <path
       inkscape:connector-curvature="0"
       id="path885"
       d="m 53.910335,181.31987 h -5.58884 l 6.8166,25.4399 h 15.53878 l -1.34842,5.03237 6.12987,-6.12987 -4.04295,-7.00258 v 6.13332 h -13.3134 z"
       style="fill:#ff4f00;fill-opacity:1;stroke:none;stroke-width:0.26458332px;stroke-linecap:butt;stroke-linejoin:miter;stroke-opacity:1" />
    <path
       style="fill:#2a00ff;fill-opacity:1;stroke:none;stroke-width:0.26458332px;stroke-linecap:butt;stroke-linejoin:miter;stroke-opacity:1"
       d="m 172.95274,181.31987 h 5.58884 l -6.8166,25.4399 H 156.1862 l 1.34842,5.03237 -6.12987,-6.12987 4.04295,-7.00258 v 6.13333 h 13.3134 z"
       id="path887"
       inkscape:connector-curvature="0" />
    <path
       sodipodi:type="star"
       style="opacity:1;fill:#7e00ff;fill-opacity:1;stroke:none;stroke-width:1.05833328;stroke-miterlimit:4;stroke-dasharray:none;stroke-dashoffset:0;stroke-opacity:1"
       id="path889"
       sodipodi:sides="3"
       sodipodi:cx="113.52975"
       sodipodi:cy="225.07524"
       sodipodi:r1="9.4928122"
       sodipodi:r2="4.7464061"
       sodipodi:arg1="1.5707963"
       sodipodi:arg2="2.6179939"
       inkscape:flatsided="false"
       inkscape:rounded="0"
       inkscape:randomized="0"
       d="m 113.52975,234.56805 -4.11051,-7.11961 -4.11051,-7.1196 8.22102,0 8.22101,-1e-5 -4.1105,7.11961 z"
       inkscape:transform-center-x="1.3392928e-06"
       inkscape:transform-center-y="2.3732013" />
    <text
       xml:space="preserve"
       style="font-style:normal;font-weight:normal;font-size:10.58333302px;line-height:1.25;font-family:sans-serif;letter-spacing:0px;word-spacing:0px;fill:#000000;fill-opacity:1;stroke:none;stroke-width:0.26458332"
       x="41.495049"
       y="215.98586"
       id="text893"><tspan
         sodipodi:role="line"
         id="tspan891"
         x="41.495049"
         y="215.98586"
         style="stroke-width:0.26458332">leer</tspan></text>
    <text
       xml:space="preserve"
       style="font-style:normal;font-weight:normal;font-size:10.58333302px;line-height:1.25;font-family:sans-serif;letter-spacing:0px;word-spacing:0px;fill:#000000;fill-opacity:1;stroke:none;stroke-width:0.26458332"
       x="161.72626"
       y="217.66043"
       id="text897"><tspan
         sodipodi:role="line"
         id="tspan895"
         x="161.72626"
         y="217.66043"
         style="stroke-width:0.26458332">usar</tspan></text>
  </g>
</svg>
