digraph LoopTask {
  args [shape=box]
  args -> task_0
  coro_obj -> task_0
  event_loop [shape=box,style=filled,color=".1 .1 1.0"]
  task_0 -> event_loop [style=dotted]
  coro_obj -> renew
  mask -> renew
  renew -> task_k
  task_k -> event_loop [style=dotted]
  task_result -> renew 
  edge [color=red];
  event_loop -> task_result 
}
