<?xml version="1.0" encoding="UTF-8" standalone="no"?>
<!-- Created with Inkscape (http://www.inkscape.org/) -->

<svg
   xmlns:dc="http://purl.org/dc/elements/1.1/"
   xmlns:cc="http://creativecommons.org/ns#"
   xmlns:rdf="http://www.w3.org/1999/02/22-rdf-syntax-ns#"
   xmlns:svg="http://www.w3.org/2000/svg"
   xmlns="http://www.w3.org/2000/svg"
   xmlns:sodipodi="http://sodipodi.sourceforge.net/DTD/sodipodi-0.dtd"
   xmlns:inkscape="http://www.inkscape.org/namespaces/inkscape"
   width="9.6913052in"
   height="5.4447246in"
   viewBox="0 0 246.15915 138.296"
   version="1.1"
   id="svg1057"
   inkscape:version="0.92.1 r15371"
   sodipodi:docname="iterar.svg"
   inkscape:export-filename="/home/david/Proyectos/Presentaciones_CursoProgramacionOOCC/16_awk_scan_text_04/img/iterar.png"
   inkscape:export-xdpi="95"
   inkscape:export-ydpi="95">
  <defs
     id="defs1051" />
  <sodipodi:namedview
     id="base"
     pagecolor="#ffffff"
     bordercolor="#666666"
     borderopacity="1.0"
     inkscape:pageopacity="0.0"
     inkscape:pageshadow="2"
     inkscape:zoom="0.24410376"
     inkscape:cx="-252.24575"
     inkscape:cy="83.841071"
     inkscape:document-units="mm"
     inkscape:current-layer="layer1"
     showgrid="false"
     inkscape:window-width="1366"
     inkscape:window-height="709"
     inkscape:window-x="0"
     inkscape:window-y="0"
     inkscape:window-maximized="1"
     units="in"
     fit-margin-top="0"
     fit-margin-left="0"
     fit-margin-right="0"
     fit-margin-bottom="0" />
  <metadata
     id="metadata1054">
    <rdf:RDF>
      <cc:Work
         rdf:about="">
        <dc:format>image/svg+xml</dc:format>
        <dc:type
           rdf:resource="http://purl.org/dc/dcmitype/StillImage" />
        <dc:title></dc:title>
      </cc:Work>
    </rdf:RDF>
  </metadata>
  <g
     inkscape:label="Capa 1"
     inkscape:groupmode="layer"
     id="layer1"
     transform="translate(-20.318251,-85.392699)">
    <rect
       style="opacity:0.378;fill:none;fill-opacity:1;stroke:#000000;stroke-width:1.05833328;stroke-miterlimit:4;stroke-dasharray:none;stroke-dashoffset:0;stroke-opacity:1"
       id="rect1078"
       width="17.8843"
       height="17.8843"
       x="46.396027"
       y="110.02776"
       ry="0.88917994" />
    <text
       xml:space="preserve"
       style="font-style:normal;font-weight:normal;font-size:7.74319315px;line-height:1.25;font-family:sans-serif;letter-spacing:0px;word-spacing:0px;fill:#000000;fill-opacity:1;stroke:none;stroke-width:0.19357982"
       x="33.781895"
       y="93.23732"
       id="text1082"><tspan
         sodipodi:role="line"
         id="tspan1080"
         x="33.781895"
         y="93.23732"
         style="stroke-width:0.19357982">Lista de </tspan><tspan
         sodipodi:role="line"
         x="33.781895"
         y="102.91631"
         style="stroke-width:0.19357982"
         id="tspan1084">Información</tspan></text>
    <rect
       ry="0.88917994"
       y="129.07727"
       x="46.396027"
       height="17.8843"
       width="17.8843"
       id="rect1629"
       style="opacity:0.378;fill:none;fill-opacity:1;stroke:#000000;stroke-width:1.05833328;stroke-miterlimit:4;stroke-dasharray:none;stroke-dashoffset:0;stroke-opacity:1" />
    <rect
       style="opacity:0.378;fill:none;fill-opacity:1;stroke:#000000;stroke-width:1.05833328;stroke-miterlimit:4;stroke-dasharray:none;stroke-dashoffset:0;stroke-opacity:1"
       id="rect1631"
       width="17.8843"
       height="17.8843"
       x="46.396027"
       y="148.12675"
       ry="0.88917994" />
    <rect
       ry="0.88917994"
       y="167.17625"
       x="46.396027"
       height="17.8843"
       width="17.8843"
       id="rect1633"
       style="opacity:0.378;fill:none;fill-opacity:1;stroke:#000000;stroke-width:1.05833328;stroke-miterlimit:4;stroke-dasharray:none;stroke-dashoffset:0;stroke-opacity:1" />
    <rect
       style="opacity:0.378;fill:none;fill-opacity:1;stroke:#000000;stroke-width:1.05833328;stroke-miterlimit:4;stroke-dasharray:none;stroke-dashoffset:0;stroke-opacity:1"
       id="rect1635"
       width="17.8843"
       height="17.8843"
       x="46.396027"
       y="186.22574"
       ry="0.88917994" />
    <rect
       ry="0.88917994"
       y="205.27524"
       x="46.396027"
       height="17.8843"
       width="17.8843"
       id="rect1637"
       style="opacity:0.378;fill:none;fill-opacity:1;stroke:#000000;stroke-width:1.05833328;stroke-miterlimit:4;stroke-dasharray:none;stroke-dashoffset:0;stroke-opacity:1" />
    <path
       style="opacity:1;fill:#ff0000;fill-opacity:1;stroke:none;stroke-width:3.99999976;stroke-miterlimit:4;stroke-dasharray:none;stroke-dashoffset:0;stroke-opacity:1"
       d="m 278.97266,230.45508 v 14.0664 H 252.9668 v 170.00977 h 26.00586 v 14.06641 c 0,63.19256 -5.19099,-63.86511 47.03754,-99.07032 -50.56798,-37.14767 -47.03754,-152.61517 -47.03754,-99.07226 z"
       transform="matrix(0.26458333,0,0,0.26458333,0,81.1)"
       id="rect1639"
       inkscape:connector-curvature="0"
       sodipodi:nodetypes="sccccscs" />
    <text
       xml:space="preserve"
       style="font-style:normal;font-weight:normal;font-size:4.69287205px;line-height:1.25;font-family:sans-serif;letter-spacing:0px;word-spacing:0px;fill:#000000;fill-opacity:1;stroke:none;stroke-width:0.1173218"
       x="66.621284"
       y="203.03342"
       id="text1646"><tspan
         sodipodi:role="line"
         id="tspan1644"
         x="66.621284"
         y="203.03342"
         style="stroke-width:0.1173218">Procesar </tspan><tspan
         sodipodi:role="line"
         x="66.621284"
         y="208.89951"
         style="stroke-width:0.1173218"
         id="tspan1648">en una </tspan><tspan
         sodipodi:role="line"
         x="66.621284"
         y="214.76559"
         style="stroke-width:0.1173218"
         id="tspan1650">Iteración</tspan></text>
    <rect
       ry="0.88917994"
       y="110.02776"
       x="94.297958"
       height="17.8843"
       width="17.8843"
       id="rect1652"
       style="opacity:1;fill:#00ff00;fill-opacity:1;stroke:#000000;stroke-width:1.05833328;stroke-miterlimit:4;stroke-dasharray:none;stroke-dashoffset:0;stroke-opacity:1" />
    <rect
       style="opacity:0.378;fill:none;fill-opacity:1;stroke:#000000;stroke-width:1.05833328;stroke-miterlimit:4;stroke-dasharray:none;stroke-dashoffset:0;stroke-opacity:1"
       id="rect1654"
       width="17.8843"
       height="17.8843"
       x="94.297958"
       y="129.07727"
       ry="0.88917994" />
    <rect
       ry="0.88917994"
       y="148.12675"
       x="94.297958"
       height="17.8843"
       width="17.8843"
       id="rect1656"
       style="opacity:0.378;fill:none;fill-opacity:1;stroke:#000000;stroke-width:1.05833328;stroke-miterlimit:4;stroke-dasharray:none;stroke-dashoffset:0;stroke-opacity:1" />
    <rect
       style="opacity:0.378;fill:none;fill-opacity:1;stroke:#000000;stroke-width:1.05833328;stroke-miterlimit:4;stroke-dasharray:none;stroke-dashoffset:0;stroke-opacity:1"
       id="rect1658"
       width="17.8843"
       height="17.8843"
       x="94.297958"
       y="167.17625"
       ry="0.88917994" />
    <rect
       ry="0.88917994"
       y="186.22574"
       x="94.297958"
       height="17.8843"
       width="17.8843"
       id="rect1660"
       style="opacity:0.378;fill:none;fill-opacity:1;stroke:#000000;stroke-width:1.05833328;stroke-miterlimit:4;stroke-dasharray:none;stroke-dashoffset:0;stroke-opacity:1" />
    <rect
       style="opacity:0.378;fill:none;fill-opacity:1;stroke:#000000;stroke-width:1.05833328;stroke-miterlimit:4;stroke-dasharray:none;stroke-dashoffset:0;stroke-opacity:1"
       id="rect1662"
       width="17.8843"
       height="17.8843"
       x="94.297958"
       y="205.27524"
       ry="0.88917994" />
    <rect
       style="opacity:0.378;fill:none;fill-opacity:1;stroke:#000000;stroke-width:1.05833328;stroke-miterlimit:4;stroke-dasharray:none;stroke-dashoffset:0;stroke-opacity:1"
       id="rect1664"
       width="17.8843"
       height="17.8843"
       x="121.50626"
       y="110.02776"
       ry="0.88917994" />
    <rect
       ry="0.88917994"
       y="129.07727"
       x="121.50626"
       height="17.8843"
       width="17.8843"
       id="rect1666"
       style="opacity:1;fill:#ffed00;fill-opacity:1;stroke:#000000;stroke-width:1.05833328;stroke-miterlimit:4;stroke-dasharray:none;stroke-dashoffset:0;stroke-opacity:1" />
    <rect
       style="opacity:0.378;fill:none;fill-opacity:1;stroke:#000000;stroke-width:1.05833328;stroke-miterlimit:4;stroke-dasharray:none;stroke-dashoffset:0;stroke-opacity:1"
       id="rect1668"
       width="17.8843"
       height="17.8843"
       x="121.50626"
       y="148.12675"
       ry="0.88917994" />
    <rect
       ry="0.88917994"
       y="167.17625"
       x="121.50626"
       height="17.8843"
       width="17.8843"
       id="rect1670"
       style="opacity:0.378;fill:none;fill-opacity:1;stroke:#000000;stroke-width:1.05833328;stroke-miterlimit:4;stroke-dasharray:none;stroke-dashoffset:0;stroke-opacity:1" />
    <rect
       style="opacity:0.378;fill:none;fill-opacity:1;stroke:#000000;stroke-width:1.05833328;stroke-miterlimit:4;stroke-dasharray:none;stroke-dashoffset:0;stroke-opacity:1"
       id="rect1672"
       width="17.8843"
       height="17.8843"
       x="121.50626"
       y="186.22574"
       ry="0.88917994" />
    <rect
       ry="0.88917994"
       y="205.27524"
       x="121.50626"
       height="17.8843"
       width="17.8843"
       id="rect1674"
       style="opacity:0.378;fill:none;fill-opacity:1;stroke:#000000;stroke-width:1.05833328;stroke-miterlimit:4;stroke-dasharray:none;stroke-dashoffset:0;stroke-opacity:1" />
    <rect
       ry="0.88917994"
       y="110.02776"
       x="149.86421"
       height="17.8843"
       width="17.8843"
       id="rect1676"
       style="opacity:0.378;fill:none;fill-opacity:1;stroke:#000000;stroke-width:1.05833328;stroke-miterlimit:4;stroke-dasharray:none;stroke-dashoffset:0;stroke-opacity:1" />
    <rect
       style="opacity:0.378;fill:none;fill-opacity:1;stroke:#000000;stroke-width:1.05833328;stroke-miterlimit:4;stroke-dasharray:none;stroke-dashoffset:0;stroke-opacity:1"
       id="rect1678"
       width="17.8843"
       height="17.8843"
       x="149.86421"
       y="129.07727"
       ry="0.88917994" />
    <rect
       ry="0.88917994"
       y="148.12675"
       x="149.86421"
       height="17.8843"
       width="17.8843"
       id="rect1680"
       style="opacity:1;fill:#ff1900;fill-opacity:1;stroke:#000000;stroke-width:1.05833328;stroke-miterlimit:4;stroke-dasharray:none;stroke-dashoffset:0;stroke-opacity:1" />
    <rect
       style="opacity:0.378;fill:none;fill-opacity:1;stroke:#000000;stroke-width:1.05833328;stroke-miterlimit:4;stroke-dasharray:none;stroke-dashoffset:0;stroke-opacity:1"
       id="rect1682"
       width="17.8843"
       height="17.8843"
       x="149.86421"
       y="167.17625"
       ry="0.88917994" />
    <rect
       ry="0.88917994"
       y="186.22574"
       x="149.86421"
       height="17.8843"
       width="17.8843"
       id="rect1684"
       style="opacity:0.378;fill:none;fill-opacity:1;stroke:#000000;stroke-width:1.05833328;stroke-miterlimit:4;stroke-dasharray:none;stroke-dashoffset:0;stroke-opacity:1" />
    <rect
       style="opacity:0.378;fill:none;fill-opacity:1;stroke:#000000;stroke-width:1.05833328;stroke-miterlimit:4;stroke-dasharray:none;stroke-dashoffset:0;stroke-opacity:1"
       id="rect1686"
       width="17.8843"
       height="17.8843"
       x="149.86421"
       y="205.27524"
       ry="0.88917994" />
    <rect
       style="opacity:0.378;fill:none;fill-opacity:1;stroke:#000000;stroke-width:1.05833328;stroke-miterlimit:4;stroke-dasharray:none;stroke-dashoffset:0;stroke-opacity:1"
       id="rect1688"
       width="17.8843"
       height="17.8843"
       x="178.60538"
       y="110.02776"
       ry="0.88917994" />
    <rect
       ry="0.88917994"
       y="129.07727"
       x="178.60538"
       height="17.8843"
       width="17.8843"
       id="rect1690"
       style="opacity:0.378;fill:none;fill-opacity:1;stroke:#000000;stroke-width:1.05833328;stroke-miterlimit:4;stroke-dasharray:none;stroke-dashoffset:0;stroke-opacity:1" />
    <rect
       style="opacity:0.378;fill:none;fill-opacity:1;stroke:#000000;stroke-width:1.05833328;stroke-miterlimit:4;stroke-dasharray:none;stroke-dashoffset:0;stroke-opacity:1"
       id="rect1692"
       width="17.8843"
       height="17.8843"
       x="178.60538"
       y="148.12675"
       ry="0.88917994" />
    <rect
       ry="0.88917994"
       y="167.17625"
       x="178.60538"
       height="17.8843"
       width="17.8843"
       id="rect1694"
       style="opacity:1;fill:#ff006f;fill-opacity:1;stroke:#000000;stroke-width:1.05833328;stroke-miterlimit:4;stroke-dasharray:none;stroke-dashoffset:0;stroke-opacity:1" />
    <rect
       style="opacity:0.378;fill:none;fill-opacity:1;stroke:#000000;stroke-width:1.05833328;stroke-miterlimit:4;stroke-dasharray:none;stroke-dashoffset:0;stroke-opacity:1"
       id="rect1696"
       width="17.8843"
       height="17.8843"
       x="178.60538"
       y="186.22574"
       ry="0.88917994" />
    <rect
       ry="0.88917994"
       y="205.27524"
       x="178.60538"
       height="17.8843"
       width="17.8843"
       id="rect1698"
       style="opacity:0.378;fill:none;fill-opacity:1;stroke:#000000;stroke-width:1.05833328;stroke-miterlimit:4;stroke-dasharray:none;stroke-dashoffset:0;stroke-opacity:1" />
    <rect
       ry="0.88917994"
       y="110.02776"
       x="208.11296"
       height="17.8843"
       width="17.8843"
       id="rect1700"
       style="opacity:0.378;fill:none;fill-opacity:1;stroke:#000000;stroke-width:1.05833328;stroke-miterlimit:4;stroke-dasharray:none;stroke-dashoffset:0;stroke-opacity:1" />
    <rect
       style="opacity:0.378;fill:none;fill-opacity:1;stroke:#000000;stroke-width:1.05833328;stroke-miterlimit:4;stroke-dasharray:none;stroke-dashoffset:0;stroke-opacity:1"
       id="rect1702"
       width="17.8843"
       height="17.8843"
       x="208.11296"
       y="129.07727"
       ry="0.88917994" />
    <rect
       ry="0.88917994"
       y="148.12675"
       x="208.11296"
       height="17.8843"
       width="17.8843"
       id="rect1704"
       style="opacity:0.378;fill:none;fill-opacity:1;stroke:#000000;stroke-width:1.05833328;stroke-miterlimit:4;stroke-dasharray:none;stroke-dashoffset:0;stroke-opacity:1" />
    <rect
       style="opacity:0.378;fill:none;fill-opacity:1;stroke:#000000;stroke-width:1.05833328;stroke-miterlimit:4;stroke-dasharray:none;stroke-dashoffset:0;stroke-opacity:1"
       id="rect1706"
       width="17.8843"
       height="17.8843"
       x="208.11296"
       y="167.17625"
       ry="0.88917994" />
    <rect
       ry="0.88917994"
       y="186.22574"
       x="208.11296"
       height="17.8843"
       width="17.8843"
       id="rect1708"
       style="opacity:1;fill:#d400ff;fill-opacity:1;stroke:#000000;stroke-width:1.05833328;stroke-miterlimit:4;stroke-dasharray:none;stroke-dashoffset:0;stroke-opacity:1" />
    <rect
       style="opacity:0.378;fill:none;fill-opacity:1;stroke:#000000;stroke-width:1.05833328;stroke-miterlimit:4;stroke-dasharray:none;stroke-dashoffset:0;stroke-opacity:1"
       id="rect1710"
       width="17.8843"
       height="17.8843"
       x="208.11296"
       y="205.27524"
       ry="0.88917994" />
    <rect
       style="opacity:0.378;fill:none;fill-opacity:1;stroke:#000000;stroke-width:1.05833328;stroke-miterlimit:4;stroke-dasharray:none;stroke-dashoffset:0;stroke-opacity:1"
       id="rect1712"
       width="17.8843"
       height="17.8843"
       x="237.62054"
       y="110.02776"
       ry="0.88917994" />
    <rect
       ry="0.88917994"
       y="129.07727"
       x="237.62054"
       height="17.8843"
       width="17.8843"
       id="rect1714"
       style="opacity:0.378;fill:none;fill-opacity:1;stroke:#000000;stroke-width:1.05833328;stroke-miterlimit:4;stroke-dasharray:none;stroke-dashoffset:0;stroke-opacity:1" />
    <rect
       style="opacity:0.378;fill:none;fill-opacity:1;stroke:#000000;stroke-width:1.05833328;stroke-miterlimit:4;stroke-dasharray:none;stroke-dashoffset:0;stroke-opacity:1"
       id="rect1716"
       width="17.8843"
       height="17.8843"
       x="237.62054"
       y="148.12675"
       ry="0.88917994" />
    <rect
       ry="0.88917994"
       y="167.17625"
       x="237.62054"
       height="17.8843"
       width="17.8843"
       id="rect1718"
       style="opacity:0.378;fill:none;fill-opacity:1;stroke:#000000;stroke-width:1.05833328;stroke-miterlimit:4;stroke-dasharray:none;stroke-dashoffset:0;stroke-opacity:1" />
    <rect
       style="opacity:0.378;fill:none;fill-opacity:1;stroke:#000000;stroke-width:1.05833328;stroke-miterlimit:4;stroke-dasharray:none;stroke-dashoffset:0;stroke-opacity:1"
       id="rect1720"
       width="17.8843"
       height="17.8843"
       x="237.62054"
       y="186.22574"
       ry="0.88917994" />
    <rect
       ry="0.88917994"
       y="205.27524"
       x="237.62054"
       height="17.8843"
       width="17.8843"
       id="rect1722"
       style="opacity:1;fill:#0001ff;fill-opacity:1;stroke:#000000;stroke-width:1.05833328;stroke-miterlimit:4;stroke-dasharray:none;stroke-dashoffset:0;stroke-opacity:1" />
    <rect
       ry="0.88917994"
       y="110.02776"
       x="20.847418"
       height="17.8843"
       width="17.8843"
       id="rect1724"
       style="opacity:0.378;fill:none;fill-opacity:1;stroke:#000000;stroke-width:1.05833328;stroke-miterlimit:4;stroke-dasharray:none;stroke-dashoffset:0;stroke-opacity:1" />
    <rect
       style="opacity:0.378;fill:none;fill-opacity:1;stroke:#000000;stroke-width:1.05833328;stroke-miterlimit:4;stroke-dasharray:none;stroke-dashoffset:0;stroke-opacity:1"
       id="rect1726"
       width="17.8843"
       height="17.8843"
       x="20.847418"
       y="129.07727"
       ry="0.88917994" />
    <rect
       ry="0.88917994"
       y="148.12675"
       x="20.847418"
       height="17.8843"
       width="17.8843"
       id="rect1728"
       style="opacity:0.378;fill:none;fill-opacity:1;stroke:#000000;stroke-width:1.05833328;stroke-miterlimit:4;stroke-dasharray:none;stroke-dashoffset:0;stroke-opacity:1" />
    <rect
       style="opacity:0.378;fill:none;fill-opacity:1;stroke:#000000;stroke-width:1.05833328;stroke-miterlimit:4;stroke-dasharray:none;stroke-dashoffset:0;stroke-opacity:1"
       id="rect1730"
       width="17.8843"
       height="17.8843"
       x="20.847418"
       y="167.17625"
       ry="0.88917994" />
    <rect
       ry="0.88917994"
       y="186.22574"
       x="20.847418"
       height="17.8843"
       width="17.8843"
       id="rect1732"
       style="opacity:0.378;fill:none;fill-opacity:1;stroke:#000000;stroke-width:1.05833328;stroke-miterlimit:4;stroke-dasharray:none;stroke-dashoffset:0;stroke-opacity:1" />
    <rect
       style="opacity:0.378;fill:none;fill-opacity:1;stroke:#000000;stroke-width:1.05833328;stroke-miterlimit:4;stroke-dasharray:none;stroke-dashoffset:0;stroke-opacity:1"
       id="rect1734"
       width="17.8843"
       height="17.8843"
       x="20.847418"
       y="205.27524"
       ry="0.88917994" />
    <text
       xml:space="preserve"
       style="font-style:normal;font-weight:normal;font-size:10.58333302px;line-height:1.25;font-family:sans-serif;letter-spacing:0px;word-spacing:0px;fill:#000000;fill-opacity:1;stroke:none;stroke-width:0.26458332"
       x="26.425432"
       y="123.97822"
       id="text1738"><tspan
         sodipodi:role="line"
         id="tspan1736"
         x="26.425432"
         y="123.97822"
         style="stroke-width:0.26458332">0</tspan></text>
    <text
       xml:space="preserve"
       style="font-style:normal;font-weight:normal;font-size:10.58333302px;line-height:1.25;font-family:sans-serif;letter-spacing:0px;word-spacing:0px;fill:#000000;fill-opacity:1;stroke:none;stroke-width:0.26458332"
       x="26.32983"
       y="143.13899"
       id="text1742"><tspan
         sodipodi:role="line"
         id="tspan1740"
         x="26.32983"
         y="143.13899"
         style="stroke-width:0.26458332">1</tspan></text>
    <text
       xml:space="preserve"
       style="font-style:normal;font-weight:normal;font-size:10.58333302px;line-height:1.25;font-family:sans-serif;letter-spacing:0px;word-spacing:0px;fill:#000000;fill-opacity:1;stroke:none;stroke-width:0.26458332"
       x="26.564959"
       y="161.72495"
       id="text1746"><tspan
         sodipodi:role="line"
         id="tspan1744"
         x="26.564959"
         y="161.72495"
         style="stroke-width:0.26458332">2</tspan></text>
    <text
       xml:space="preserve"
       style="font-style:normal;font-weight:normal;font-size:10.58333302px;line-height:1.25;font-family:sans-serif;letter-spacing:0px;word-spacing:0px;fill:#000000;fill-opacity:1;stroke:none;stroke-width:0.26458332"
       x="26.44352"
       y="181.26892"
       id="text1750"><tspan
         sodipodi:role="line"
         id="tspan1748"
         x="26.44352"
         y="181.26892"
         style="stroke-width:0.26458332">3</tspan></text>
    <text
       xml:space="preserve"
       style="font-style:normal;font-weight:normal;font-size:10.58333302px;line-height:1.25;font-family:sans-serif;letter-spacing:0px;word-spacing:0px;fill:#000000;fill-opacity:1;stroke:none;stroke-width:0.26458332"
       x="26.461605"
       y="198.89684"
       id="text1754"><tspan
         sodipodi:role="line"
         id="tspan1752"
         x="26.461605"
         y="198.89684"
         style="stroke-width:0.26458332">4</tspan></text>
    <text
       xml:space="preserve"
       style="font-style:normal;font-weight:normal;font-size:10.58333302px;line-height:1.25;font-family:sans-serif;letter-spacing:0px;word-spacing:0px;fill:#000000;fill-opacity:1;stroke:none;stroke-width:0.26458332"
       x="26.477108"
       y="218.44083"
       id="text1758"><tspan
         sodipodi:role="line"
         id="tspan1756"
         x="26.477108"
         y="218.44083"
         style="stroke-width:0.26458332">5</tspan></text>
    <rect
       style="opacity:1;fill:#0001ff;fill-opacity:1;stroke:none;stroke-width:1.05833328;stroke-miterlimit:4;stroke-dasharray:none;stroke-dashoffset:0;stroke-opacity:1"
       id="rect1760"
       width="4.7901931"
       height="2.6825082"
       x="39.854404"
       y="117.62866"
       ry="0.88917994" />
    <rect
       ry="0.88917994"
       y="136.78943"
       x="39.854404"
       height="2.6825082"
       width="4.7901931"
       id="rect1762"
       style="opacity:1;fill:#0001ff;fill-opacity:1;stroke:none;stroke-width:1.05833328;stroke-miterlimit:4;stroke-dasharray:none;stroke-dashoffset:0;stroke-opacity:1" />
    <rect
       style="opacity:1;fill:#0001ff;fill-opacity:1;stroke:none;stroke-width:1.05833328;stroke-miterlimit:4;stroke-dasharray:none;stroke-dashoffset:0;stroke-opacity:1"
       id="rect1764"
       width="4.7901931"
       height="2.6825082"
       x="39.854404"
       y="155.9502"
       ry="0.88917994" />
    <rect
       ry="0.88917994"
       y="175.30258"
       x="39.854404"
       height="2.6825082"
       width="4.7901931"
       id="rect1766"
       style="opacity:1;fill:#0001ff;fill-opacity:1;stroke:none;stroke-width:1.05833328;stroke-miterlimit:4;stroke-dasharray:none;stroke-dashoffset:0;stroke-opacity:1" />
    <rect
       style="opacity:1;fill:#0001ff;fill-opacity:1;stroke:none;stroke-width:1.05833328;stroke-miterlimit:4;stroke-dasharray:none;stroke-dashoffset:0;stroke-opacity:1"
       id="rect1768"
       width="4.7901931"
       height="2.6825082"
       x="39.854404"
       y="194.84657"
       ry="0.88917994" />
    <rect
       ry="0.88917994"
       y="213.62413"
       x="39.854404"
       height="2.6825082"
       width="4.7901931"
       id="rect1770"
       style="opacity:1;fill:#0001ff;fill-opacity:1;stroke:none;stroke-width:1.05833328;stroke-miterlimit:4;stroke-dasharray:none;stroke-dashoffset:0;stroke-opacity:1" />
    <rect
       style="opacity:1;fill:#ff0000;fill-opacity:1;stroke:none;stroke-width:0.68235248;stroke-miterlimit:4;stroke-dasharray:none;stroke-dashoffset:0;stroke-opacity:1"
       id="rect1772"
       width="6.7982259"
       height="37.990601"
       x="259.02753"
       y="147.42221"
       ry="0.87055188" />
    <text
       xml:space="preserve"
       style="font-style:normal;font-weight:normal;font-size:5.25088692px;line-height:1.25;font-family:sans-serif;letter-spacing:0px;word-spacing:0px;fill:#000000;fill-opacity:1;stroke:none;stroke-width:0.13127217"
       x="258.49081"
       y="193.66507"
       id="text1776"><tspan
         sodipodi:role="line"
         id="tspan1774"
         x="258.49081"
         y="193.66507"
         style="stroke-width:0.13127217">FIN</tspan></text>
    <path
       style="fill:none;stroke:#000000;stroke-width:0.26458332px;stroke-linecap:butt;stroke-linejoin:miter;stroke-opacity:1"
       d="m 92.534912,108.9461 1.161268,-5.21989 h 158.6512 l 3.13745,5.43422"
       id="path1778"
       inkscape:connector-curvature="0"
       sodipodi:nodetypes="cccc" />
    <text
       xml:space="preserve"
       style="font-style:normal;font-weight:normal;font-size:7.3428936px;line-height:1.25;font-family:sans-serif;text-align:center;letter-spacing:0px;word-spacing:0px;text-anchor:middle;fill:#000000;fill-opacity:1;stroke:none;stroke-width:0.18357234"
       x="171.28709"
       y="91.265579"
       id="text1782"><tspan
         sodipodi:role="line"
         id="tspan1780"
         x="172.45593"
         y="91.265579"
         style="text-align:center;text-anchor:middle;stroke-width:0.18357234">procesa la información </tspan><tspan
         sodipodi:role="line"
         x="171.28709"
         y="100.4442"
         style="text-align:center;text-anchor:middle;stroke-width:0.18357234"
         id="tspan1784">campo a campo</tspan></text>
  </g>
</svg>
